<?xml version='1.0' encoding='utf-8'?>
<graphml xmlns="http://graphml.graphdrawing.org/xmlns" xmlns:xsi="http://www.w3.org/2001/XMLSchema-instance" xsi:schemaLocation="http://graphml.graphdrawing.org/xmlns http://graphml.graphdrawing.org/xmlns/1.0/graphml.xsd"><key attr.name="glymod_NeuAc" attr.type="long" for="edge" id="d16"/>
<key attr.name="glymod_Fuc" attr.type="long" for="edge" id="d15"/>
<key attr.name="glymod_Hex" attr.type="long" for="edge" id="d14"/>
<key attr.name="glymod_HexNAc" attr.type="long" for="edge" id="d13"/>
<key attr.name="weight" attr.type="long" for="edge" id="d12"/>
<key attr.name="hypotenuse" attr.type="long" for="edge" id="d11"/>
<key attr.name="delta_RT" attr.type="double" for="edge" id="d10"/>
<key attr.name="delta_m/z" attr.type="double" for="edge" id="d9"/>
<key attr.name="jumplist" attr.type="string" for="node" id="d8"/>
<key attr.name="jumplist_cluster" attr.type="string" for="node" id="d7"/>
<key attr.name="jumplist_all" attr.type="string" for="node" id="d6"/>
<key attr.name="precursor_charge" attr.type="long" for="node" id="d5"/>
<key attr.name="precursor_rt" attr.type="double" for="node" id="d4"/>
<key attr.name="precursor_mz" attr.type="double" for="node" id="d3"/>
<key attr.name="intensity" attr.type="double" for="node" id="d2"/>
<key attr.name="mz" attr.type="double" for="node" id="d1"/>
<key attr.name="rt" attr.type="double" for="node" id="d0"/>
<graph edgedefault="undirected"><node id="1027">
  <data key="d0">1940.926886</data>
  <data key="d1">4051.7204229999998</data>
  <data key="d2">5557660160.0</data>
  <data key="d3">1351.580751</data>
  <data key="d4">1940.926886</data>
  <data key="d5">3</data>
</node>
<node id="1155">
  <data key="d0">1989.5380089999999</data>
  <data key="d1">3013.339615</data>
  <data key="d2">1084620032.0</data>
  <data key="d3">1507.677084</data>
  <data key="d4">1989.5380089999999</data>
  <data key="d5">2</data>
</node>
<node id="1157">
  <data key="d0">1989.894551</data>
  <data key="d1">3111.3867809999997</data>
  <data key="d2">482640992.0</data>
  <data key="d3">1038.136204</data>
  <data key="d4">1989.894551</data>
  <data key="d5">3</data>
</node>
<node id="1161">
  <data key="d0">1990.5916489999997</data>
  <data key="d1">3013.333384</data>
  <data key="d2">2982560000.0</data>
  <data key="d3">1005.4517380000001</data>
  <data key="d4">1990.5916489999997</data>
  <data key="d5">3</data>
</node>
<node id="1164">
  <data key="d0">1991.8267309999999</data>
  <data key="d1">3314.470555</data>
  <data key="d2">83576800.0</data>
  <data key="d3">1105.8307949999999</data>
  <data key="d4">1991.8267309999999</data>
  <data key="d5">3</data>
</node>
<node id="1165">
  <data key="d0">1992.3173190000002</data>
  <data key="d1">3054.364275</data>
  <data key="d2">13504100352.0</data>
  <data key="d3">1019.1289720000001</data>
  <data key="d4">1994.370785</data>
  <data key="d5">3</data>
</node>
<node id="1040">
  <data key="d0">1947.1819269999999</data>
  <data key="d1">3581.5496829999997</data>
  <data key="d2">1238550016.0</data>
  <data key="d3">1791.782118</data>
  <data key="d4">1947.1819269999999</data>
  <data key="d5">2</data>
</node>
<node id="1046">
  <data key="d0">1949.755216</data>
  <data key="d1">3743.5958979999996</data>
  <data key="d2">4372009984.0</data>
  <data key="d3">1248.872576</data>
  <data key="d4">1949.755216</data>
  <data key="d5">3</data>
</node>
<node id="1048">
  <data key="d0">1951.7060850000003</data>
  <data key="d1">3784.6169090000003</data>
  <data key="d2">2380450048.0</data>
  <data key="d3">1262.546246</data>
  <data key="d4">1951.7060850000003</data>
  <data key="d5">3</data>
</node>
<node id="1179">
  <data key="d0">2001.2186609999999</data>
  <data key="d1">2908.3022760000003</data>
  <data key="d2">295052000.0</data>
  <data key="d3">970.4413686</data>
  <data key="d4">2001.2186609999999</data>
  <data key="d5">3</data>
</node>
<node id="1054">
  <data key="d0">1954.8658870000002</data>
  <data key="d1">3889.6591329999997</data>
  <data key="d2">2673750016.0</data>
  <data key="d3">1297.5603210000002</data>
  <data key="d4">1954.8658870000002</data>
  <data key="d5">3</data>
</node>
<node id="1184">
  <data key="d0">2004.0358760000001</data>
  <data key="d1">2851.283069</data>
  <data key="d2">2867310080.0</data>
  <data key="d3">1426.648811</data>
  <data key="d4">2004.0358760000001</data>
  <data key="d5">2</data>
</node>
<node id="1057">
  <data key="d0">1955.442761</data>
  <data key="d1">3362.473044</data>
  <data key="d2">132220000.0</data>
  <data key="d3">1682.243798</data>
  <data key="d4">1955.442761</data>
  <data key="d5">2</data>
</node>
<node id="1058">
  <data key="d0">1955.4584539999998</data>
  <data key="d1">3540.5207840000003</data>
  <data key="d2">6491350016.0</data>
  <data key="d3">1181.180871</data>
  <data key="d4">1955.4584539999998</data>
  <data key="d5">3</data>
</node>
<node id="1063">
  <data key="d0">1958.0176760000002</data>
  <data key="d1">3581.5434880000003</data>
  <data key="d2">7084460032.0</data>
  <data key="d3">1194.855106</data>
  <data key="d4">1958.0176760000002</data>
  <data key="d5">3</data>
</node>
<node id="1192">
  <data key="d0">2006.042871</data>
  <data key="d1">2851.2825620000003</data>
  <data key="d2">6658570240.0</data>
  <data key="d3">951.4347972</data>
  <data key="d4">2006.042871</data>
  <data key="d5">3</data>
</node>
<node id="1065">
  <data key="d0">1958.702883</data>
  <data key="d1">3321.449591</data>
  <data key="d2">510726016.0</data>
  <data key="d3">1108.15714</data>
  <data key="d4">1958.702883</data>
  <data key="d5">3</data>
</node>
<node id="946">
  <data key="d0">1911.79622</data>
  <data key="d1">4254.7949530000005</data>
  <data key="d2">37274200.0</data>
  <data key="d3">1064.706015</data>
  <data key="d4">1911.79622</data>
  <data key="d5">4</data>
</node>
<node id="1075">
  <data key="d0">1962.391713</data>
  <data key="d1">3622.5765509999997</data>
  <data key="d2">385456000.0</data>
  <data key="d3">1812.295552</data>
  <data key="d4">1962.391713</data>
  <data key="d5">2</data>
</node>
<node id="1203">
  <data key="d0">2012.150888</data>
  <data key="d1">2502.1473960000003</data>
  <data key="d2">265390000.0</data>
  <data key="d3">1252.081381</data>
  <data key="d4">2010.774682</data>
  <data key="d5">2</data>
</node>
<node id="951">
  <data key="d0">1912.6770609999999</data>
  <data key="d1">4238.798825</data>
  <data key="d2">50007600.0</data>
  <data key="d3">1413.940218</data>
  <data key="d4">1912.6770609999999</data>
  <data key="d5">3</data>
</node>
<node id="1079">
  <data key="d0">1964.8482800000002</data>
  <data key="d1">3378.4663969999997</data>
  <data key="d2">786820992.0</data>
  <data key="d3">1690.240475</data>
  <data key="d4">1964.8482800000002</data>
  <data key="d5">2</data>
</node>
<node id="1081">
  <data key="d0">1964.905535</data>
  <data key="d1">3622.5692240000003</data>
  <data key="d2">3786880000.0</data>
  <data key="d3">1208.5303509999999</data>
  <data key="d4">1964.905535</data>
  <data key="d5">3</data>
</node>
<node id="1083">
  <data key="d0">1965.446184</data>
  <data key="d1">3362.4756899999998</data>
  <data key="d2">1470840064.0</data>
  <data key="d3">1121.832507</data>
  <data key="d4">1965.446184</data>
  <data key="d5">3</data>
</node>
<node id="1213">
  <data key="d0">2016.4310899999998</data>
  <data key="d1">2648.2057670000004</data>
  <data key="d2">2074690048.0</data>
  <data key="d3">883.7430808</data>
  <data key="d4">2017.181366</data>
  <data key="d5">3</data>
</node>
<node id="964">
  <data key="d0">1915.7420339999999</data>
  <data key="d1">4197.7599789999995</data>
  <data key="d2">2571239936.0</data>
  <data key="d3">1400.260603</data>
  <data key="d4">1915.7420339999999</data>
  <data key="d5">3</data>
</node>
<node id="1096">
  <data key="d0">1969.308947</data>
  <data key="d1">3419.486125</data>
  <data key="d2">3196369920.0</data>
  <data key="d3">1710.7503390000002</data>
  <data key="d4">1969.308947</data>
  <data key="d5">2</data>
</node>
<node id="1224">
  <data key="d0">2022.002991</data>
  <data key="d1">2445.12839</data>
  <data key="d2">51972400.0</data>
  <data key="d3">1223.5714710000002</data>
  <data key="d4">2022.002991</data>
  <data key="d5">2</data>
</node>
<node id="1099">
  <data key="d0">1969.8827350000001</data>
  <data key="d1">3419.4915969999997</data>
  <data key="d2">11370000384.0</data>
  <data key="d3">1140.8378089999999</data>
  <data key="d4">1969.8827350000001</data>
  <data key="d5">3</data>
</node>
<node id="1101">
  <data key="d0">1970.5673239999999</data>
  <data key="d1">3175.39079</data>
  <data key="d2">753374016.0</data>
  <data key="d3">1588.702671</data>
  <data key="d4">1970.5673239999999</data>
  <data key="d5">2</data>
</node>
<node id="1105">
  <data key="d0">1972.6822280000001</data>
  <data key="d1">3524.5359710000002</data>
  <data key="d2">488587008.0</data>
  <data key="d3">1175.8526</data>
  <data key="d4">1972.6822280000001</data>
  <data key="d5">3</data>
</node>
<node id="979">
  <data key="d0">1920.6252510000002</data>
  <data key="d1">4108.739012</data>
  <data key="d2">3499059968.0</data>
  <data key="d3">1370.586947</data>
  <data key="d4">1920.6252510000002</data>
  <data key="d5">3</data>
</node>
<node id="982">
  <data key="d0">1921.5762739999998</data>
  <data key="d1">4092.7436909999997</data>
  <data key="d2">407632000.0</data>
  <data key="d3">1365.2551740000001</data>
  <data key="d4">1921.5762739999998</data>
  <data key="d5">3</data>
</node>
<node id="983">
  <data key="d0">1921.930323</data>
  <data key="d1">4149.775861</data>
  <data key="d2">62637300.0</data>
  <data key="d3">1384.265897</data>
  <data key="d4">1921.930323</data>
  <data key="d5">3</data>
</node>
<node id="1112">
  <data key="d0">1975.994775</data>
  <data key="d1">3175.385422</data>
  <data key="d2">1996589952.0</data>
  <data key="d3">1059.469084</data>
  <data key="d4">1975.994775</data>
  <data key="d5">3</data>
</node>
<node id="987">
  <data key="d0">1922.578679</data>
  <data key="d1">3905.658529</data>
  <data key="d2">37093000.0</data>
  <data key="d3">977.4219087000001</data>
  <data key="d4">1922.578679</data>
  <data key="d5">4</data>
</node>
<node id="1117">
  <data key="d0">1977.554095</data>
  <data key="d1">3159.396081</data>
  <data key="d2">234147008.0</data>
  <data key="d3">1054.1393039999998</data>
  <data key="d4">1977.554095</data>
  <data key="d5">3</data>
</node>
<node id="990">
  <data key="d0">1923.717747</data>
  <data key="d1">4108.738622999999</data>
  <data key="d2">166512992.0</data>
  <data key="d3">1028.191932</data>
  <data key="d4">1923.717747</data>
  <data key="d5">4</data>
</node>
<node id="1118">
  <data key="d0">1977.894064</data>
  <data key="d1">3216.41095</data>
  <data key="d2">1732729984.0</data>
  <data key="d3">1609.212752</data>
  <data key="d4">1977.894064</data>
  <data key="d5">2</data>
</node>
<node id="1119">
  <data key="d0">1978.1163329999997</data>
  <data key="d1">3257.438882</data>
  <data key="d2">5006470144.0</data>
  <data key="d3">1629.726718</data>
  <data key="d4">1978.1163329999997</data>
  <data key="d5">2</data>
</node>
<node id="1121">
  <data key="d0">1978.250596</data>
  <data key="d1">3460.5175710000003</data>
  <data key="d2">5642789888.0</data>
  <data key="d3">1154.513767</data>
  <data key="d4">1980.321043</data>
  <data key="d5">3</data>
</node>
<node id="1124">
  <data key="d0">1979.13445</data>
  <data key="d1">3070.355941</data>
  <data key="d2">147492992.0</data>
  <data key="d3">1024.459257</data>
  <data key="d4">1979.13445</data>
  <data key="d5">3</data>
</node>
<node id="1130">
  <data key="d0">1980.128106</data>
  <data key="d1">3378.4686560000005</data>
  <data key="d2">5372389888.0</data>
  <data key="d3">1127.163495</data>
  <data key="d4">1980.128106</data>
  <data key="d5">3</data>
</node>
<node id="1131">
  <data key="d0">1980.2639800000002</data>
  <data key="d1">3273.435095</data>
  <data key="d2">312024000.0</data>
  <data key="d3">1092.152308</data>
  <data key="d4">1980.2639800000002</data>
  <data key="d5">3</data>
</node>
<node id="1133">
  <data key="d0">1980.424331</data>
  <data key="d1">3257.43951</data>
  <data key="d2">17804099584.0</data>
  <data key="d3">1086.820447</data>
  <data key="d4">1980.424331</data>
  <data key="d5">3</data>
</node>
<node id="1008">
  <data key="d0">1930.968059</data>
  <data key="d1">4254.796927</data>
  <data key="d2">3950089984.0</data>
  <data key="d3">1419.272919</data>
  <data key="d4">1930.968059</data>
  <data key="d5">3</data>
</node>
<node id="1009">
  <data key="d0">1931.118047</data>
  <data key="d1">3946.679879</data>
  <data key="d2">2215729920.0</data>
  <data key="d3">1316.5672359999999</data>
  <data key="d4">1931.118047</data>
  <data key="d5">3</data>
</node>
<node id="1016">
  <data key="d0">1932.3845019999999</data>
  <data key="d1">3540.5229740000004</data>
  <data key="d2">439039008.0</data>
  <data key="d3">1771.2687640000001</data>
  <data key="d4">1932.3845019999999</data>
  <data key="d5">2</data>
</node>
<node id="1018">
  <data key="d0">1933.6688510000001</data>
  <data key="d1">3686.560039</data>
  <data key="d2">1488140032.0</data>
  <data key="d3">1229.860623</data>
  <data key="d4">1933.6688510000001</data>
  <data key="d5">3</data>
</node>
<node id="1149">
  <data key="d0">1986.1729489999998</data>
  <data key="d1">3216.413498</data>
  <data key="d2">6243570176.0</data>
  <data key="d3">1073.145109</data>
  <data key="d4">1986.1729489999998</data>
  <data key="d5">3</data>
</node>
<node id="0">
  <data key="d6">&lt;table border="1" class="dataframe"&gt;
  &lt;thead&gt;
    &lt;tr style="text-align: right;"&gt;
      &lt;th&gt;difference&lt;/th&gt;
      &lt;th&gt;max_rt&lt;/th&gt;
      &lt;th&gt;weight&lt;/th&gt;
      &lt;th&gt;color&lt;/th&gt;
      &lt;th&gt;cluster&lt;/th&gt;
      &lt;th&gt;cluster_min_rt&lt;/th&gt;
      &lt;th&gt;glymod_HexNAc&lt;/th&gt;
      &lt;th&gt;glymod_Hex&lt;/th&gt;
      &lt;th&gt;glymod_Fuc&lt;/th&gt;
      &lt;th&gt;glymod_NeuAc&lt;/th&gt;
    &lt;/tr&gt;
  &lt;/thead&gt;
  &lt;tbody&gt;
    &lt;tr&gt;
      &lt;td&gt;162.05282&lt;/td&gt;
      &lt;td&gt;30&lt;/td&gt;
      &lt;td&gt;1&lt;/td&gt;
      &lt;td&gt;yellow&lt;/td&gt;
      &lt;td&gt;0&lt;/td&gt;
      &lt;td&gt;0&lt;/td&gt;
      &lt;td&gt;0&lt;/td&gt;
      &lt;td&gt;1&lt;/td&gt;
      &lt;td&gt;0&lt;/td&gt;
      &lt;td&gt;0&lt;/td&gt;
    &lt;/tr&gt;
    &lt;tr&gt;
      &lt;td&gt;203.07937&lt;/td&gt;
      &lt;td&gt;30&lt;/td&gt;
      &lt;td&gt;1&lt;/td&gt;
      &lt;td&gt;blue&lt;/td&gt;
      &lt;td&gt;0&lt;/td&gt;
      &lt;td&gt;0&lt;/td&gt;
      &lt;td&gt;1&lt;/td&gt;
      &lt;td&gt;0&lt;/td&gt;
      &lt;td&gt;0&lt;/td&gt;
      &lt;td&gt;0&lt;/td&gt;
    &lt;/tr&gt;
    &lt;tr&gt;
      &lt;td&gt;365.13219&lt;/td&gt;
      &lt;td&gt;50&lt;/td&gt;
      &lt;td&gt;1&lt;/td&gt;
      &lt;td&gt;green&lt;/td&gt;
      &lt;td&gt;0&lt;/td&gt;
      &lt;td&gt;0&lt;/td&gt;
      &lt;td&gt;1&lt;/td&gt;
      &lt;td&gt;1&lt;/td&gt;
      &lt;td&gt;0&lt;/td&gt;
      &lt;td&gt;0&lt;/td&gt;
    &lt;/tr&gt;
    &lt;tr&gt;
      &lt;td&gt;146.05791&lt;/td&gt;
      &lt;td&gt;30&lt;/td&gt;
      &lt;td&gt;1&lt;/td&gt;
      &lt;td&gt;red&lt;/td&gt;
      &lt;td&gt;0&lt;/td&gt;
      &lt;td&gt;0&lt;/td&gt;
      &lt;td&gt;0&lt;/td&gt;
      &lt;td&gt;0&lt;/td&gt;
      &lt;td&gt;1&lt;/td&gt;
      &lt;td&gt;0&lt;/td&gt;
    &lt;/tr&gt;
    &lt;tr&gt;
      &lt;td&gt;291.09540&lt;/td&gt;
      &lt;td&gt;500&lt;/td&gt;
      &lt;td&gt;1&lt;/td&gt;
      &lt;td&gt;pink&lt;/td&gt;
      &lt;td&gt;1&lt;/td&gt;
      &lt;td&gt;100&lt;/td&gt;
      &lt;td&gt;0&lt;/td&gt;
      &lt;td&gt;0&lt;/td&gt;
      &lt;td&gt;0&lt;/td&gt;
      &lt;td&gt;1&lt;/td&gt;
    &lt;/tr&gt;
  &lt;/tbody&gt;
&lt;/table&gt;</data>
  <data key="d7">&lt;table border="1" class="dataframe"&gt;
  &lt;thead&gt;
    &lt;tr style="text-align: right;"&gt;
      &lt;th&gt;difference&lt;/th&gt;
      &lt;th&gt;max_rt&lt;/th&gt;
      &lt;th&gt;weight&lt;/th&gt;
      &lt;th&gt;color&lt;/th&gt;
      &lt;th&gt;cluster&lt;/th&gt;
      &lt;th&gt;cluster_min_rt&lt;/th&gt;
      &lt;th&gt;glymod_HexNAc&lt;/th&gt;
      &lt;th&gt;glymod_Hex&lt;/th&gt;
      &lt;th&gt;glymod_Fuc&lt;/th&gt;
      &lt;th&gt;glymod_NeuAc&lt;/th&gt;
    &lt;/tr&gt;
  &lt;/thead&gt;
  &lt;tbody&gt;
    &lt;tr&gt;
      &lt;td&gt;291.0954&lt;/td&gt;
      &lt;td&gt;500&lt;/td&gt;
      &lt;td&gt;1&lt;/td&gt;
      &lt;td&gt;pink&lt;/td&gt;
      &lt;td&gt;1&lt;/td&gt;
      &lt;td&gt;100&lt;/td&gt;
      &lt;td&gt;0&lt;/td&gt;
      &lt;td&gt;0&lt;/td&gt;
      &lt;td&gt;0&lt;/td&gt;
      &lt;td&gt;1&lt;/td&gt;
    &lt;/tr&gt;
  &lt;/tbody&gt;
&lt;/table&gt;</data>
  <data key="d8">&lt;table border="1" class="dataframe"&gt;
  &lt;thead&gt;
    &lt;tr style="text-align: right;"&gt;
      &lt;th&gt;difference&lt;/th&gt;
      &lt;th&gt;max_rt&lt;/th&gt;
      &lt;th&gt;weight&lt;/th&gt;
      &lt;th&gt;color&lt;/th&gt;
      &lt;th&gt;cluster&lt;/th&gt;
      &lt;th&gt;cluster_min_rt&lt;/th&gt;
      &lt;th&gt;glymod_HexNAc&lt;/th&gt;
      &lt;th&gt;glymod_Hex&lt;/th&gt;
      &lt;th&gt;glymod_Fuc&lt;/th&gt;
      &lt;th&gt;glymod_NeuAc&lt;/th&gt;
    &lt;/tr&gt;
  &lt;/thead&gt;
  &lt;tbody&gt;
    &lt;tr&gt;
      &lt;td&gt;162.05282&lt;/td&gt;
      &lt;td&gt;30&lt;/td&gt;
      &lt;td&gt;1&lt;/td&gt;
      &lt;td&gt;yellow&lt;/td&gt;
      &lt;td&gt;0&lt;/td&gt;
      &lt;td&gt;0&lt;/td&gt;
      &lt;td&gt;0&lt;/td&gt;
      &lt;td&gt;1&lt;/td&gt;
      &lt;td&gt;0&lt;/td&gt;
      &lt;td&gt;0&lt;/td&gt;
    &lt;/tr&gt;
    &lt;tr&gt;
      &lt;td&gt;203.07937&lt;/td&gt;
      &lt;td&gt;30&lt;/td&gt;
      &lt;td&gt;1&lt;/td&gt;
      &lt;td&gt;blue&lt;/td&gt;
      &lt;td&gt;0&lt;/td&gt;
      &lt;td&gt;0&lt;/td&gt;
      &lt;td&gt;1&lt;/td&gt;
      &lt;td&gt;0&lt;/td&gt;
      &lt;td&gt;0&lt;/td&gt;
      &lt;td&gt;0&lt;/td&gt;
    &lt;/tr&gt;
    &lt;tr&gt;
      &lt;td&gt;365.13219&lt;/td&gt;
      &lt;td&gt;50&lt;/td&gt;
      &lt;td&gt;1&lt;/td&gt;
      &lt;td&gt;green&lt;/td&gt;
      &lt;td&gt;0&lt;/td&gt;
      &lt;td&gt;0&lt;/td&gt;
      &lt;td&gt;1&lt;/td&gt;
      &lt;td&gt;1&lt;/td&gt;
      &lt;td&gt;0&lt;/td&gt;
      &lt;td&gt;0&lt;/td&gt;
    &lt;/tr&gt;
    &lt;tr&gt;
      &lt;td&gt;146.05791&lt;/td&gt;
      &lt;td&gt;30&lt;/td&gt;
      &lt;td&gt;1&lt;/td&gt;
      &lt;td&gt;red&lt;/td&gt;
      &lt;td&gt;0&lt;/td&gt;
      &lt;td&gt;0&lt;/td&gt;
      &lt;td&gt;0&lt;/td&gt;
      &lt;td&gt;0&lt;/td&gt;
      &lt;td&gt;1&lt;/td&gt;
      &lt;td&gt;0&lt;/td&gt;
    &lt;/tr&gt;
  &lt;/tbody&gt;
&lt;/table&gt;</data>
  <data key="d0">0.0</data>
  <data key="d1">0.0</data>
  <data key="d2">0.0</data>
</node>
<edge source="1027" target="946">
  <data key="d9">203.07453000000078</data>
  <data key="d10">29.13066600000002</data>
  <data key="d11">1</data>
  <data key="d12">1</data>
  <data key="d13">1</data>
  <data key="d14">0</data>
  <data key="d15">0</data>
  <data key="d16">0</data>
</edge>
<edge source="1027" target="964">
  <data key="d9">146.03955599999972</data>
  <data key="d10">25.18485200000009</data>
  <data key="d11">1</data>
  <data key="d12">1</data>
  <data key="d13">0</data>
  <data key="d14">0</data>
  <data key="d15">1</data>
  <data key="d16">0</data>
</edge>
<edge source="1027" target="1008">
  <data key="d9">203.07650400000057</data>
  <data key="d10">9.958826999999928</data>
  <data key="d11">1</data>
  <data key="d12">1</data>
  <data key="d13">1</data>
  <data key="d14">0</data>
  <data key="d15">0</data>
  <data key="d16">0</data>
</edge>
<edge source="1027" target="1054">
  <data key="d9">162.0612900000001</data>
  <data key="d10">13.93900100000019</data>
  <data key="d11">1</data>
  <data key="d12">1</data>
  <data key="d13">0</data>
  <data key="d14">1</data>
  <data key="d15">0</data>
  <data key="d16">0</data>
</edge>
<edge source="1155" target="1079">
  <data key="d9">365.1267819999998</data>
  <data key="d10">24.689728999999716</data>
  <data key="d11">1</data>
  <data key="d12">1</data>
  <data key="d13">1</data>
  <data key="d14">1</data>
  <data key="d15">0</data>
  <data key="d16">0</data>
</edge>
<edge source="1155" target="1112">
  <data key="d9">162.04580699999997</data>
  <data key="d10">13.543233999999984</data>
  <data key="d11">1</data>
  <data key="d12">1</data>
  <data key="d13">0</data>
  <data key="d14">1</data>
  <data key="d15">0</data>
  <data key="d16">0</data>
</edge>
<edge source="1155" target="1117">
  <data key="d9">146.056466</data>
  <data key="d10">11.983913999999913</data>
  <data key="d11">1</data>
  <data key="d12">1</data>
  <data key="d13">0</data>
  <data key="d14">0</data>
  <data key="d15">1</data>
  <data key="d16">0</data>
</edge>
<edge source="1155" target="1130">
  <data key="d9">365.1290410000006</data>
  <data key="d10">9.409902999999986</data>
  <data key="d11">1</data>
  <data key="d12">1</data>
  <data key="d13">1</data>
  <data key="d14">1</data>
  <data key="d15">0</data>
  <data key="d16">0</data>
</edge>
<edge source="1155" target="1213">
  <data key="d9">365.1338479999995</data>
  <data key="d10">26.89308099999994</data>
  <data key="d11">1</data>
  <data key="d12">1</data>
  <data key="d13">1</data>
  <data key="d14">1</data>
  <data key="d15">0</data>
  <data key="d16">0</data>
</edge>
<edge source="1157" target="1119">
  <data key="d9">146.05210100000022</data>
  <data key="d10">11.778218000000379</data>
  <data key="d11">1</data>
  <data key="d12">1</data>
  <data key="d13">0</data>
  <data key="d14">0</data>
  <data key="d15">1</data>
  <data key="d16">0</data>
</edge>
<edge source="1157" target="1131">
  <data key="d9">162.04831400000012</data>
  <data key="d10">9.630570999999918</data>
  <data key="d11">1</data>
  <data key="d12">1</data>
  <data key="d13">0</data>
  <data key="d14">1</data>
  <data key="d15">0</data>
  <data key="d16">0</data>
</edge>
<edge source="1157" target="1133">
  <data key="d9">146.05272900000045</data>
  <data key="d10">9.470220000000154</data>
  <data key="d11">1</data>
  <data key="d12">1</data>
  <data key="d13">0</data>
  <data key="d14">0</data>
  <data key="d15">1</data>
  <data key="d16">0</data>
</edge>
<edge source="1157" target="1179">
  <data key="d9">203.08450499999935</data>
  <data key="d10">11.324109999999791</data>
  <data key="d11">1</data>
  <data key="d12">1</data>
  <data key="d13">1</data>
  <data key="d14">0</data>
  <data key="d15">0</data>
  <data key="d16">0</data>
</edge>
<edge source="1161" target="1079">
  <data key="d9">365.13301299999966</data>
  <data key="d10">25.743368999999575</data>
  <data key="d11">1</data>
  <data key="d12">1</data>
  <data key="d13">1</data>
  <data key="d14">1</data>
  <data key="d15">0</data>
  <data key="d16">0</data>
</edge>
<edge source="1161" target="1112">
  <data key="d9">162.0520379999998</data>
  <data key="d10">14.596873999999843</data>
  <data key="d11">1</data>
  <data key="d12">1</data>
  <data key="d13">0</data>
  <data key="d14">1</data>
  <data key="d15">0</data>
  <data key="d16">0</data>
</edge>
<edge source="1161" target="1130">
  <data key="d9">365.13527200000044</data>
  <data key="d10">10.463542999999845</data>
  <data key="d11">1</data>
  <data key="d12">1</data>
  <data key="d13">1</data>
  <data key="d14">1</data>
  <data key="d15">0</data>
  <data key="d16">0</data>
</edge>
<edge source="1161" target="1184">
  <data key="d9">162.05031499999996</data>
  <data key="d10">13.44422700000041</data>
  <data key="d11">1</data>
  <data key="d12">1</data>
  <data key="d13">0</data>
  <data key="d14">1</data>
  <data key="d15">0</data>
  <data key="d16">0</data>
</edge>
<edge source="1164" target="1121">
  <data key="d9">146.04701600000044</data>
  <data key="d10">13.576134999999795</data>
  <data key="d11">1</data>
  <data key="d12">1</data>
  <data key="d13">0</data>
  <data key="d14">0</data>
  <data key="d15">1</data>
  <data key="d16">0</data>
</edge>
<edge source="1165" target="1096">
  <data key="d9">365.12185</data>
  <data key="d10">23.008372000000236</data>
  <data key="d11">1</data>
  <data key="d12">1</data>
  <data key="d13">1</data>
  <data key="d14">1</data>
  <data key="d15">0</data>
  <data key="d16">0</data>
</edge>
<edge source="1165" target="1119">
  <data key="d9">203.07460700000001</data>
  <data key="d10">14.200986000000512</data>
  <data key="d11">1</data>
  <data key="d12">1</data>
  <data key="d13">1</data>
  <data key="d14">0</data>
  <data key="d15">0</data>
  <data key="d16">0</data>
</edge>
<edge source="1165" target="1133">
  <data key="d9">203.07523500000025</data>
  <data key="d10">11.892988000000287</data>
  <data key="d11">1</data>
  <data key="d12">1</data>
  <data key="d13">1</data>
  <data key="d14">0</data>
  <data key="d15">0</data>
  <data key="d16">0</data>
</edge>
<edge source="1165" target="1179">
  <data key="d9">146.06199899999956</data>
  <data key="d10">8.901341999999659</data>
  <data key="d11">1</data>
  <data key="d12">1</data>
  <data key="d13">0</data>
  <data key="d14">0</data>
  <data key="d15">1</data>
  <data key="d16">0</data>
</edge>
<edge source="1040" target="1009">
  <data key="d9">365.13019600000007</data>
  <data key="d10">16.063879999999926</data>
  <data key="d11">1</data>
  <data key="d12">1</data>
  <data key="d13">1</data>
  <data key="d14">1</data>
  <data key="d15">0</data>
  <data key="d16">0</data>
</edge>
<edge source="1040" target="1079">
  <data key="d9">203.08328600000004</data>
  <data key="d10">17.6663530000003</data>
  <data key="d11">1</data>
  <data key="d12">1</data>
  <data key="d13">1</data>
  <data key="d14">0</data>
  <data key="d15">0</data>
  <data key="d16">0</data>
</edge>
<edge source="1040" target="1096">
  <data key="d9">162.06355799999983</data>
  <data key="d10">22.12702000000013</data>
  <data key="d11">1</data>
  <data key="d12">1</data>
  <data key="d13">0</data>
  <data key="d14">1</data>
  <data key="d15">0</data>
  <data key="d16">0</data>
</edge>
<edge source="1040" target="1099">
  <data key="d9">162.058086</data>
  <data key="d10">22.70080800000028</data>
  <data key="d11">1</data>
  <data key="d12">1</data>
  <data key="d13">0</data>
  <data key="d14">1</data>
  <data key="d15">0</data>
  <data key="d16">0</data>
</edge>
<edge source="1040" target="1118">
  <data key="d9">365.1387329999998</data>
  <data key="d10">30.71213700000021</data>
  <data key="d11">1</data>
  <data key="d12">1</data>
  <data key="d13">1</data>
  <data key="d14">1</data>
  <data key="d15">0</data>
  <data key="d16">0</data>
</edge>
<edge source="1040" target="1149">
  <data key="d9">365.13618499999984</data>
  <data key="d10">38.99102199999993</data>
  <data key="d11">1</data>
  <data key="d12">1</data>
  <data key="d13">1</data>
  <data key="d14">1</data>
  <data key="d15">0</data>
  <data key="d16">0</data>
</edge>
<edge source="1046" target="979">
  <data key="d9">365.1431140000004</data>
  <data key="d10">29.129964999999856</data>
  <data key="d11">1</data>
  <data key="d12">1</data>
  <data key="d13">1</data>
  <data key="d14">1</data>
  <data key="d15">0</data>
  <data key="d16">0</data>
</edge>
<edge source="1046" target="987">
  <data key="d9">162.06263100000024</data>
  <data key="d10">27.176537000000053</data>
  <data key="d11">1</data>
  <data key="d12">1</data>
  <data key="d13">0</data>
  <data key="d14">1</data>
  <data key="d15">0</data>
  <data key="d16">0</data>
</edge>
<edge source="1046" target="990">
  <data key="d9">365.1427249999997</data>
  <data key="d10">26.0374690000001</data>
  <data key="d11">1</data>
  <data key="d12">1</data>
  <data key="d13">1</data>
  <data key="d14">1</data>
  <data key="d15">0</data>
  <data key="d16">0</data>
</edge>
<edge source="1046" target="1016">
  <data key="d9">203.07292399999915</data>
  <data key="d10">-17.370714000000135</data>
  <data key="d11">1</data>
  <data key="d12">1</data>
  <data key="d13">1</data>
  <data key="d14">0</data>
  <data key="d15">0</data>
  <data key="d16">0</data>
</edge>
<edge source="1046" target="1130">
  <data key="d9">365.1272419999991</data>
  <data key="d10">30.37288999999987</data>
  <data key="d11">1</data>
  <data key="d12">1</data>
  <data key="d13">1</data>
  <data key="d14">1</data>
  <data key="d15">0</data>
  <data key="d16">0</data>
</edge>
<edge source="1048" target="1009">
  <data key="d9">162.0629699999995</data>
  <data key="d10">20.588038000000324</data>
  <data key="d11">1</data>
  <data key="d12">1</data>
  <data key="d13">0</data>
  <data key="d14">1</data>
  <data key="d15">0</data>
  <data key="d16">0</data>
</edge>
<edge source="1048" target="1063">
  <data key="d9">203.07342100000005</data>
  <data key="d10">6.311590999999908</data>
  <data key="d11">1</data>
  <data key="d12">1</data>
  <data key="d13">1</data>
  <data key="d14">0</data>
  <data key="d15">0</data>
  <data key="d16">0</data>
</edge>
<edge source="1048" target="1075">
  <data key="d9">162.04035800000065</data>
  <data key="d10">10.685627999999724</data>
  <data key="d11">1</data>
  <data key="d12">1</data>
  <data key="d13">0</data>
  <data key="d14">1</data>
  <data key="d15">0</data>
  <data key="d16">0</data>
</edge>
<edge source="1048" target="1081">
  <data key="d9">162.047685</data>
  <data key="d10">13.199449999999842</data>
  <data key="d11">1</data>
  <data key="d12">1</data>
  <data key="d13">0</data>
  <data key="d14">1</data>
  <data key="d15">0</data>
  <data key="d16">0</data>
</edge>
<edge source="1179" target="1124">
  <data key="d9">162.05366499999946</data>
  <data key="d10">22.08421099999987</data>
  <data key="d11">1</data>
  <data key="d12">1</data>
  <data key="d13">0</data>
  <data key="d14">1</data>
  <data key="d15">0</data>
  <data key="d16">0</data>
</edge>
<edge source="1179" target="1131">
  <data key="d9">365.1328189999995</data>
  <data key="d10">20.95468099999971</data>
  <data key="d11">1</data>
  <data key="d12">1</data>
  <data key="d13">1</data>
  <data key="d14">1</data>
  <data key="d15">0</data>
  <data key="d16">0</data>
</edge>
<edge source="1054" target="946">
  <data key="d9">365.1358200000009</data>
  <data key="d10">43.06966700000021</data>
  <data key="d11">1</data>
  <data key="d12">1</data>
  <data key="d13">1</data>
  <data key="d14">1</data>
  <data key="d15">0</data>
  <data key="d16">0</data>
</edge>
<edge source="1054" target="1018">
  <data key="d9">203.0990939999997</data>
  <data key="d10">-21.197036000000026</data>
  <data key="d11">1</data>
  <data key="d12">1</data>
  <data key="d13">1</data>
  <data key="d14">0</data>
  <data key="d15">0</data>
  <data key="d16">0</data>
</edge>
<edge source="1054" target="1105">
  <data key="d9">365.1231619999994</data>
  <data key="d10">17.816340999999966</data>
  <data key="d11">1</data>
  <data key="d12">1</data>
  <data key="d13">1</data>
  <data key="d14">1</data>
  <data key="d15">0</data>
  <data key="d16">0</data>
</edge>
<edge source="1184" target="1118">
  <data key="d9">365.1278809999999</data>
  <data key="d10">26.141812000000073</data>
  <data key="d11">1</data>
  <data key="d12">1</data>
  <data key="d13">1</data>
  <data key="d14">1</data>
  <data key="d15">0</data>
  <data key="d16">0</data>
</edge>
<edge source="1184" target="1213">
  <data key="d9">203.0773019999997</data>
  <data key="d10">12.395213999999669</data>
  <data key="d11">1</data>
  <data key="d12">1</data>
  <data key="d13">1</data>
  <data key="d14">0</data>
  <data key="d15">0</data>
  <data key="d16">0</data>
</edge>
<edge source="1057" target="1117">
  <data key="d9">203.07696299999998</data>
  <data key="d10">22.111333999999943</data>
  <data key="d11">1</data>
  <data key="d12">1</data>
  <data key="d13">1</data>
  <data key="d14">0</data>
  <data key="d15">0</data>
  <data key="d16">0</data>
</edge>
<edge source="1057" target="1118">
  <data key="d9">146.0620939999999</data>
  <data key="d10">22.451303000000053</data>
  <data key="d11">1</data>
  <data key="d12">1</data>
  <data key="d13">0</data>
  <data key="d14">0</data>
  <data key="d15">1</data>
  <data key="d16">0</data>
</edge>
<edge source="1057" target="1105">
  <data key="d9">162.0629270000004</data>
  <data key="d10">-17.239467000000104</data>
  <data key="d11">1</data>
  <data key="d12">1</data>
  <data key="d13">0</data>
  <data key="d14">1</data>
  <data key="d15">0</data>
  <data key="d16">0</data>
</edge>
<edge source="1058" target="987">
  <data key="d9">365.13774499999954</data>
  <data key="d10">32.87977499999988</data>
  <data key="d11">1</data>
  <data key="d12">1</data>
  <data key="d13">1</data>
  <data key="d14">1</data>
  <data key="d15">0</data>
  <data key="d16">0</data>
</edge>
<edge source="1058" target="1018">
  <data key="d9">146.03925499999968</data>
  <data key="d10">21.789602999999715</data>
  <data key="d11">1</data>
  <data key="d12">1</data>
  <data key="d13">0</data>
  <data key="d14">0</data>
  <data key="d15">1</data>
  <data key="d16">0</data>
</edge>
<edge source="1058" target="1079">
  <data key="d9">162.0543870000006</data>
  <data key="d10">9.389826000000312</data>
  <data key="d11">1</data>
  <data key="d12">1</data>
  <data key="d13">0</data>
  <data key="d14">1</data>
  <data key="d15">0</data>
  <data key="d16">0</data>
</edge>
<edge source="1058" target="1101">
  <data key="d9">365.12999400000035</data>
  <data key="d10">15.108870000000024</data>
  <data key="d11">1</data>
  <data key="d12">1</data>
  <data key="d13">1</data>
  <data key="d14">1</data>
  <data key="d15">0</data>
  <data key="d16">0</data>
</edge>
<edge source="1063" target="1009">
  <data key="d9">365.13639099999955</data>
  <data key="d10">26.899629000000232</data>
  <data key="d11">1</data>
  <data key="d12">1</data>
  <data key="d13">1</data>
  <data key="d14">1</data>
  <data key="d15">0</data>
  <data key="d16">0</data>
</edge>
<edge source="1063" target="1079">
  <data key="d9">203.07709100000056</data>
  <data key="d10">6.830603999999994</data>
  <data key="d11">1</data>
  <data key="d12">1</data>
  <data key="d13">1</data>
  <data key="d14">0</data>
  <data key="d15">0</data>
  <data key="d16">0</data>
</edge>
<edge source="1063" target="1096">
  <data key="d9">162.05736300000035</data>
  <data key="d10">11.291270999999824</data>
  <data key="d11">1</data>
  <data key="d12">1</data>
  <data key="d13">0</data>
  <data key="d14">1</data>
  <data key="d15">0</data>
  <data key="d16">0</data>
</edge>
<edge source="1192" target="1118">
  <data key="d9">365.12838799999963</data>
  <data key="d10">28.148807000000033</data>
  <data key="d11">1</data>
  <data key="d12">1</data>
  <data key="d13">1</data>
  <data key="d14">1</data>
  <data key="d15">0</data>
  <data key="d16">0</data>
</edge>
<edge source="1192" target="1213">
  <data key="d9">203.07679499999995</data>
  <data key="d10">10.388218999999708</data>
  <data key="d11">1</data>
  <data key="d12">1</data>
  <data key="d13">1</data>
  <data key="d14">0</data>
  <data key="d15">0</data>
  <data key="d16">0</data>
</edge>
<edge source="1065" target="1101">
  <data key="d9">146.05880100000013</data>
  <data key="d10">11.864440999999943</data>
  <data key="d11">1</data>
  <data key="d12">1</data>
  <data key="d13">0</data>
  <data key="d14">0</data>
  <data key="d15">1</data>
  <data key="d16">0</data>
</edge>
<edge source="1065" target="1112">
  <data key="d9">146.06416900000022</data>
  <data key="d10">17.29189199999996</data>
  <data key="d11">1</data>
  <data key="d12">1</data>
  <data key="d13">0</data>
  <data key="d14">0</data>
  <data key="d15">1</data>
  <data key="d16">0</data>
</edge>
<edge source="1065" target="1117">
  <data key="d9">162.0535100000002</data>
  <data key="d10">18.851212000000032</data>
  <data key="d11">1</data>
  <data key="d12">1</data>
  <data key="d13">0</data>
  <data key="d14">1</data>
  <data key="d15">0</data>
  <data key="d16">0</data>
</edge>
<edge source="1065" target="1105">
  <data key="d9">203.0863800000002</data>
  <data key="d10">-13.979345000000194</data>
  <data key="d11">1</data>
  <data key="d12">1</data>
  <data key="d13">1</data>
  <data key="d14">0</data>
  <data key="d15">0</data>
  <data key="d16">0</data>
</edge>
<edge source="946" target="979">
  <data key="d9">146.05594100000053</data>
  <data key="d10">8.829031000000214</data>
  <data key="d11">1</data>
  <data key="d12">1</data>
  <data key="d13">0</data>
  <data key="d14">0</data>
  <data key="d15">1</data>
  <data key="d16">0</data>
</edge>
<edge source="946" target="982">
  <data key="d9">162.05126200000086</data>
  <data key="d10">9.780053999999836</data>
  <data key="d11">1</data>
  <data key="d12">1</data>
  <data key="d13">0</data>
  <data key="d14">1</data>
  <data key="d15">0</data>
  <data key="d16">0</data>
</edge>
<edge source="946" target="990">
  <data key="d9">146.05633000000125</data>
  <data key="d10">11.92152699999997</data>
  <data key="d11">1</data>
  <data key="d12">1</data>
  <data key="d13">0</data>
  <data key="d14">0</data>
  <data key="d15">1</data>
  <data key="d16">0</data>
</edge>
<edge source="1075" target="1096">
  <data key="d9">203.09042599999975</data>
  <data key="d10">6.917234000000008</data>
  <data key="d11">1</data>
  <data key="d12">1</data>
  <data key="d13">1</data>
  <data key="d14">0</data>
  <data key="d15">0</data>
  <data key="d16">0</data>
</edge>
<edge source="1075" target="1099">
  <data key="d9">203.08495399999993</data>
  <data key="d10">7.491022000000157</data>
  <data key="d11">1</data>
  <data key="d12">1</data>
  <data key="d13">1</data>
  <data key="d14">0</data>
  <data key="d15">0</data>
  <data key="d16">0</data>
</edge>
<edge source="1075" target="1119">
  <data key="d9">365.13766899999973</data>
  <data key="d10">15.724619999999732</data>
  <data key="d11">1</data>
  <data key="d12">1</data>
  <data key="d13">1</data>
  <data key="d14">1</data>
  <data key="d15">0</data>
  <data key="d16">0</data>
</edge>
<edge source="1075" target="1121">
  <data key="d9">162.05897999999934</data>
  <data key="d10">15.858883000000105</data>
  <data key="d11">1</data>
  <data key="d12">1</data>
  <data key="d13">0</data>
  <data key="d14">1</data>
  <data key="d15">0</data>
  <data key="d16">0</data>
</edge>
<edge source="1075" target="1133">
  <data key="d9">365.1370409999995</data>
  <data key="d10">18.032617999999957</data>
  <data key="d11">1</data>
  <data key="d12">1</data>
  <data key="d13">1</data>
  <data key="d14">1</data>
  <data key="d15">0</data>
  <data key="d16">0</data>
</edge>
<edge source="1203" target="1213">
  <data key="d9">146.05837100000008</data>
  <data key="d10">-4.2802019999999175</data>
  <data key="d11">1</data>
  <data key="d12">1</data>
  <data key="d13">0</data>
  <data key="d14">0</data>
  <data key="d15">1</data>
  <data key="d16">0</data>
</edge>
<edge source="951" target="982">
  <data key="d9">146.05513400000018</data>
  <data key="d10">8.899212999999918</data>
  <data key="d11">1</data>
  <data key="d12">1</data>
  <data key="d13">0</data>
  <data key="d14">0</data>
  <data key="d15">1</data>
  <data key="d16">0</data>
</edge>
<edge source="1079" target="1101">
  <data key="d9">203.07560699999976</data>
  <data key="d10">5.7190439999997125</data>
  <data key="d11">1</data>
  <data key="d12">1</data>
  <data key="d13">1</data>
  <data key="d14">0</data>
  <data key="d15">0</data>
  <data key="d16">0</data>
</edge>
<edge source="1081" target="1096">
  <data key="d9">203.0830990000004</data>
  <data key="d10">4.403411999999889</data>
  <data key="d11">1</data>
  <data key="d12">1</data>
  <data key="d13">1</data>
  <data key="d14">0</data>
  <data key="d15">0</data>
  <data key="d16">0</data>
</edge>
<edge source="1081" target="1099">
  <data key="d9">203.07762700000058</data>
  <data key="d10">4.977200000000039</data>
  <data key="d11">1</data>
  <data key="d12">1</data>
  <data key="d13">1</data>
  <data key="d14">0</data>
  <data key="d15">0</data>
  <data key="d16">0</data>
</edge>
<edge source="1081" target="1119">
  <data key="d9">365.1303420000004</data>
  <data key="d10">13.210797999999613</data>
  <data key="d11">1</data>
  <data key="d12">1</data>
  <data key="d13">1</data>
  <data key="d14">1</data>
  <data key="d15">0</data>
  <data key="d16">0</data>
</edge>
<edge source="1083" target="1117">
  <data key="d9">203.0796089999999</data>
  <data key="d10">12.107911000000058</data>
  <data key="d11">1</data>
  <data key="d12">1</data>
  <data key="d13">1</data>
  <data key="d14">0</data>
  <data key="d15">0</data>
  <data key="d16">0</data>
</edge>
<edge source="1083" target="1118">
  <data key="d9">146.0647399999998</data>
  <data key="d10">12.447880000000168</data>
  <data key="d11">1</data>
  <data key="d12">1</data>
  <data key="d13">0</data>
  <data key="d14">0</data>
  <data key="d15">1</data>
  <data key="d16">0</data>
</edge>
<edge source="1083" target="1149">
  <data key="d9">146.06219199999987</data>
  <data key="d10">20.726764999999887</data>
  <data key="d11">1</data>
  <data key="d12">1</data>
  <data key="d13">0</data>
  <data key="d14">0</data>
  <data key="d15">1</data>
  <data key="d16">0</data>
</edge>
<edge source="1083" target="1105">
  <data key="d9">162.0602810000005</data>
  <data key="d10">-7.23604400000022</data>
  <data key="d11">1</data>
  <data key="d12">1</data>
  <data key="d13">0</data>
  <data key="d14">1</data>
  <data key="d15">0</data>
  <data key="d16">0</data>
</edge>
<edge source="1213" target="1224">
  <data key="d9">203.07737700000052</data>
  <data key="d10">5.571901000000253</data>
  <data key="d11">1</data>
  <data key="d12">1</data>
  <data key="d13">1</data>
  <data key="d14">0</data>
  <data key="d15">0</data>
  <data key="d16">0</data>
</edge>
<edge source="1096" target="1131">
  <data key="d9">146.05103000000008</data>
  <data key="d10">10.955033000000185</data>
  <data key="d11">1</data>
  <data key="d12">1</data>
  <data key="d13">0</data>
  <data key="d14">0</data>
  <data key="d15">1</data>
  <data key="d16">0</data>
</edge>
<edge source="1099" target="1118">
  <data key="d9">203.08064699999977</data>
  <data key="d10">8.011328999999932</data>
  <data key="d11">1</data>
  <data key="d12">1</data>
  <data key="d13">1</data>
  <data key="d14">0</data>
  <data key="d15">0</data>
  <data key="d16">0</data>
</edge>
<edge source="1101" target="1016">
  <data key="d9">365.1321840000005</data>
  <data key="d10">38.18282199999999</data>
  <data key="d11">1</data>
  <data key="d12">1</data>
  <data key="d13">1</data>
  <data key="d14">1</data>
  <data key="d15">0</data>
  <data key="d16">0</data>
</edge>
<edge source="979" target="987">
  <data key="d9">203.08048300000019</data>
  <data key="d10">1.9534279999998034</data>
  <data key="d11">1</data>
  <data key="d12">1</data>
  <data key="d13">1</data>
  <data key="d14">0</data>
  <data key="d15">0</data>
  <data key="d16">0</data>
</edge>
<edge source="979" target="1009">
  <data key="d9">162.0591330000002</data>
  <data key="d10">10.492795999999771</data>
  <data key="d11">1</data>
  <data key="d12">1</data>
  <data key="d13">0</data>
  <data key="d14">1</data>
  <data key="d15">0</data>
  <data key="d16">0</data>
</edge>
<edge source="979" target="1008">
  <data key="d9">146.05791500000032</data>
  <data key="d10">-10.342807999999877</data>
  <data key="d11">1</data>
  <data key="d12">1</data>
  <data key="d13">0</data>
  <data key="d14">0</data>
  <data key="d15">1</data>
  <data key="d16">0</data>
</edge>
<edge source="982" target="1009">
  <data key="d9">146.06381199999987</data>
  <data key="d10">9.541773000000148</data>
  <data key="d11">1</data>
  <data key="d12">1</data>
  <data key="d13">0</data>
  <data key="d14">0</data>
  <data key="d15">1</data>
  <data key="d16">0</data>
</edge>
<edge source="982" target="1008">
  <data key="d9">162.05323600000065</data>
  <data key="d10">-9.391785000000255</data>
  <data key="d11">1</data>
  <data key="d12">1</data>
  <data key="d13">0</data>
  <data key="d14">1</data>
  <data key="d15">0</data>
  <data key="d16">0</data>
</edge>
<edge source="983" target="1009">
  <data key="d9">203.09598200000028</data>
  <data key="d10">9.18772399999989</data>
  <data key="d11">1</data>
  <data key="d12">1</data>
  <data key="d13">1</data>
  <data key="d14">0</data>
  <data key="d15">0</data>
  <data key="d16">0</data>
</edge>
<edge source="1112" target="1016">
  <data key="d9">365.1375520000006</data>
  <data key="d10">43.61027300000001</data>
  <data key="d11">1</data>
  <data key="d12">1</data>
  <data key="d13">1</data>
  <data key="d14">1</data>
  <data key="d15">0</data>
  <data key="d16">0</data>
</edge>
<edge source="987" target="1016">
  <data key="d9">365.1355549999994</data>
  <data key="d10">9.805822999999918</data>
  <data key="d11">1</data>
  <data key="d12">1</data>
  <data key="d13">1</data>
  <data key="d14">1</data>
  <data key="d15">0</data>
  <data key="d16">0</data>
</edge>
<edge source="990" target="1009">
  <data key="d9">162.05874399999948</data>
  <data key="d10">7.400300000000016</data>
  <data key="d11">1</data>
  <data key="d12">1</data>
  <data key="d13">0</data>
  <data key="d14">1</data>
  <data key="d15">0</data>
  <data key="d16">0</data>
</edge>
<edge source="990" target="1008">
  <data key="d9">146.05830400000104</data>
  <data key="d10">-7.250312000000122</data>
  <data key="d11">1</data>
  <data key="d12">1</data>
  <data key="d13">0</data>
  <data key="d14">0</data>
  <data key="d15">1</data>
  <data key="d16">0</data>
</edge>
<edge source="1118" target="1124">
  <data key="d9">146.05500900000015</data>
  <data key="d10">1.240385999999944</data>
  <data key="d11">1</data>
  <data key="d12">1</data>
  <data key="d13">0</data>
  <data key="d14">0</data>
  <data key="d15">1</data>
  <data key="d16">0</data>
</edge>
<edge source="1121" target="1133">
  <data key="d9">203.07806100000016</data>
  <data key="d10">2.1737349999998514</data>
  <data key="d11">1</data>
  <data key="d12">1</data>
  <data key="d13">1</data>
  <data key="d14">0</data>
  <data key="d15">0</data>
  <data key="d16">0</data>
</edge>
<edge source="1124" target="1131">
  <data key="d9">203.07915400000002</data>
  <data key="d10">-1.129530000000159</data>
  <data key="d11">1</data>
  <data key="d12">1</data>
  <data key="d13">1</data>
  <data key="d14">0</data>
  <data key="d15">0</data>
  <data key="d16">0</data>
</edge>
<edge source="1124" target="1149">
  <data key="d9">146.0575570000001</data>
  <data key="d10">-7.038498999999774</data>
  <data key="d11">1</data>
  <data key="d12">1</data>
  <data key="d13">0</data>
  <data key="d14">0</data>
  <data key="d15">1</data>
  <data key="d16">0</data>
</edge>
<edge source="1130" target="1149">
  <data key="d9">162.05515800000057</data>
  <data key="d10">6.044842999999901</data>
  <data key="d11">1</data>
  <data key="d12">1</data>
  <data key="d13">0</data>
  <data key="d14">1</data>
  <data key="d15">0</data>
  <data key="d16">0</data>
</edge>
</graph></graphml>