node,mz_node,rt_node,intensity,refnode,mz_refnode,mzdifference,sum_HexNAc,sum_Hex,sum_Fuc,sum_NeuAc
456,2593.110243,1731.6440519999999,46921000.0,456,2593.110243,0.0,,,,
423,2755.1633190000002,1718.381279,18806800.0,456,2593.110243,162.05307600000015,0.0,1.0,0.0,0.0
382,2958.245697,1706.68327,230128992.0,456,2593.110243,365.13545399999975,1.0,1.0,0.0,0.0
356,3120.297146,1700.5963160000001,270808000.0,456,2593.110243,527.1869029999998,1.0,2.0,0.0,0.0
424,2796.1894190000003,1719.5523170000001,1726700032.0,456,2593.110243,203.0791760000002,1.0,0.0,0.0,0.0
313,3323.377179,1690.2201129999999,1813680000.0,456,2593.110243,730.266936,2.0,2.0,0.0,0.0
399,3282.36218,1709.904205,373427008.0,456,2593.110243,689.251937,1.0,3.0,0.0,0.0
383,2999.2664670000004,1706.878637,43201500.0,456,2593.110243,406.1562240000003,2.0,0.0,0.0,0.0
413,2650.128784,1714.600291,90585296.0,456,2593.110243,57.018540999999914,1.0,0.0,-1.0,0.0
358,3161.324982,1701.1137809999998,3090139904.0,456,2593.110243,568.214739,2.0,1.0,0.0,0.0
378,2999.270199,1705.983264,13492300.0,456,2593.110243,406.15995599999997,2.0,0.0,0.0,0.0
938,3614.469814,1910.088745,165670000.0,456,2593.110243,1021.359571,2.0,2.0,0.0,1.0
969,3614.4658259999997,1917.8346239999998,4174629888.0,456,2593.110243,1021.3555829999996,2.0,2.0,0.0,1.0
255,3688.4983380000003,1671.3573800000001,1261180032.0,456,2593.110243,1095.3880950000002,3.0,3.0,0.0,0.0
315,3202.346986,1690.851031,149116000.0,456,2593.110243,609.2367429999999,3.0,0.0,0.0,0.0
342,3364.401174,1696.84577,89675400.0,456,2593.110243,771.290931,3.0,1.0,0.0,0.0
398,3202.347652,1709.7646969999998,9174939648.0,456,2593.110243,609.2374089999998,3.0,0.0,0.0,0.0
1005,3452.414308,1929.8535570000001,1927869952.0,456,2593.110243,859.3040649999998,2.0,1.0,0.0,1.0
343,3526.455219,1696.964866,3445710080.0,456,2593.110243,933.3449759999999,3.0,2.0,0.0,0.0
357,3364.4038189999997,1700.939043,5377439744.0,456,2593.110243,771.2935759999996,3.0,1.0,0.0,0.0
899,3760.523347,1893.719323,11537200.0,456,2593.110243,1167.4131039999997,2.0,2.0,1.0,1.0
910,3979.600295,1896.97613,114668000.0,456,2593.110243,1386.490052,3.0,3.0,0.0,1.0
818,3979.5938920000003,1865.1723760000002,2029980032.0,456,2593.110243,1386.4836490000002,3.0,3.0,0.0,1.0
959,3817.5489880000005,1914.713164,1638780032.0,456,2593.110243,1224.4387450000004,3.0,2.0,0.0,1.0
325,3526.4564179999998,1693.1223920000002,111707000.0,456,2593.110243,933.3461749999997,3.0,2.0,0.0,0.0
206,4053.633415,1657.865468,628988032.0,456,2593.110243,1460.5231719999997,4.0,4.0,0.0,0.0
217,3834.567079,1662.3069189999999,335751008.0,456,2593.110243,1241.4568359999998,3.0,3.0,1.0,0.0
985,3493.443842,1921.953576,355062016.0,456,2593.110243,900.333599,3.0,0.0,0.0,1.0
412,2999.2736019999998,1714.433718,7842789888.0,456,2593.110243,406.1633589999997,2.0,0.0,0.0,0.0
298,3567.48148,1684.7860230000001,9158290432.0,456,2593.110243,974.3712369999998,4.0,1.0,0.0,0.0
955,3655.498121,1913.307347,181072000.0,456,2593.110243,1062.387878,3.0,1.0,0.0,1.0
984,3655.4957659999995,1921.931575,2795549952.0,456,2593.110243,1062.3855229999995,3.0,1.0,0.0,1.0
262,3729.536647,1672.860394,447275008.0,456,2593.110243,1136.4264039999998,4.0,2.0,0.0,0.0
341,3405.428658,1696.8449739999999,14180899840.0,456,2593.110243,812.3184149999997,4.0,0.0,0.0,0.0
457,3348.403932,1731.7817440000001,1349059968.0,456,2593.110243,755.2936890000001,3.0,0.0,1.0,0.0
268,3891.585699,1673.7702199999999,2898230016.0,456,2593.110243,1298.4754560000001,4.0,3.0,0.0,0.0
244,3891.587735,1668.98892,404115008.0,456,2593.110243,1298.477492,4.0,3.0,0.0,0.0
894,4125.657546,1891.9811949999998,460519008.0,456,2593.110243,1532.5473030000003,3.0,3.0,1.0,1.0
386,3469.420651,1707.132797,1651709952.0,456,2593.110243,876.3104079999998,2.0,2.0,1.0,0.0
1570,4270.697897,2130.258906,2238159872.0,456,2593.110243,1677.587654,3.0,3.0,0.0,2.0
1779,4270.697964,2186.313376,494600992.0,456,2593.110243,1677.5877209999999,3.0,3.0,0.0,2.0
869,4344.730386,1879.956049,5069060096.0,456,2593.110243,1751.620143,4.0,4.0,0.0,1.0
924,4182.686042,1904.098068,3602340096.0,456,2593.110243,1589.5757990000002,4.0,3.0,0.0,1.0
183,4199.696373,1651.99538,1193159936.0,456,2593.110243,1606.5861299999997,4.0,4.0,1.0,0.0
224,4037.6380310000004,1663.4445859999998,108473000.0,456,2593.110243,1444.5277880000003,4.0,3.0,1.0,0.0
948,3696.519229,1911.906737,19545500.0,456,2593.110243,1103.408986,4.0,0.0,0.0,1.0
953,3858.5729939999997,1913.190652,2932320000.0,456,2593.110243,1265.4627509999996,4.0,1.0,0.0,1.0
277,3729.533464,1678.041006,4044499968.0,456,2593.110243,1136.423221,4.0,2.0,0.0,0.0
279,3713.530969,1678.26073,1345570048.0,456,2593.110243,1120.4207259999998,4.0,1.0,1.0,0.0
292,3770.5633340000004,1682.826856,381659008.0,456,2593.110243,1177.4530910000003,5.0,1.0,0.0,0.0
925,4020.6264079999996,1904.22253,4329440256.0,456,2593.110243,1427.5161649999995,4.0,2.0,0.0,1.0
228,3875.5896479999997,1665.142953,101224000.0,456,2593.110243,1282.4794049999996,4.0,2.0,1.0,0.0
240,3875.591828,1667.639813,1242259968.0,456,2593.110243,1282.481585,4.0,2.0,1.0,0.0
329,3551.494236,1693.685861,1728409984.0,456,2593.110243,958.3839929999999,4.0,0.0,1.0,0.0
350,3259.364655,1698.2483399999999,433943008.0,456,2593.110243,666.2544119999998,4.0,0.0,-1.0,0.0
921,4182.68571,1902.7099670000002,1391640064.0,456,2593.110243,1589.5754669999997,4.0,3.0,0.0,1.0
214,4256.720345000001,1659.5509769999999,1448060032.0,456,2593.110243,1663.6101020000006,5.0,4.0,0.0,0.0
216,4256.724399000001,1660.855855,749932992.0,456,2593.110243,1663.6141560000005,5.0,4.0,0.0,0.0
232,4094.664313,1665.65977,1720640000.0,456,2593.110243,1501.5540700000001,5.0,3.0,0.0,0.0
1731,4416.760167,2171.800642,382364000.0,456,2593.110243,1823.6499240000003,3.0,3.0,1.0,2.0
1758,4416.755411,2179.1033629999997,118004000.0,456,2593.110243,1823.645168,3.0,3.0,1.0,2.0
845,4490.7957719999995,1872.3815120000002,1001710016.0,456,2593.110243,1897.6855289999994,4.0,4.0,1.0,1.0
410,3307.3771039999997,1713.3354199999999,1653080064.0,456,2593.110243,714.2668609999996,2.0,1.0,1.0,0.0
1675,4635.835833,2159.518307,52847400.0,456,2593.110243,2042.72559,4.0,4.0,0.0,2.0
1702,4635.839025,2165.175153,6026019840.0,456,2593.110243,2042.7287820000001,4.0,4.0,0.0,2.0
1707,4635.833187,2165.674214,3999190016.0,456,2593.110243,2042.722944,4.0,4.0,0.0,2.0
792,4709.856025,1855.7814170000001,25113400.0,456,2593.110243,2116.745782,5.0,5.0,0.0,1.0
1803,4473.789223,2192.687104,1760150016.0,456,2593.110243,1880.6789799999997,4.0,3.0,0.0,2.0
1787,4473.78216,2188.002154,1312070016.0,456,2593.110243,1880.6719169999997,4.0,3.0,0.0,2.0
270,4037.6436710000003,1673.885278,927163008.0,456,2593.110243,1444.5334280000002,4.0,3.0,1.0,0.0
192,4402.778809,1654.378277,1254649984.0,456,2593.110243,1809.6685660000003,5.0,4.0,1.0,0.0
903,4328.7328689999995,1894.798266,705475968.0,456,2593.110243,1735.6226259999994,4.0,3.0,1.0,1.0
198,4240.727868,1656.531706,661235008.0,456,2593.110243,1647.6176249999999,5.0,3.0,1.0,0.0
201,4240.732000999999,1657.3217789999999,181204000.0,456,2593.110243,1647.6217579999993,5.0,3.0,1.0,0.0
908,3842.5769219999997,1895.713516,68497504.0,456,2593.110243,1249.4666789999997,4.0,0.0,1.0,1.0
927,3899.594976,1904.9863300000002,56348500.0,456,2593.110243,1306.4847329999998,5.0,0.0,0.0,1.0
333,3405.429523,1694.7321129999998,556209024.0,456,2593.110243,812.3192799999997,4.0,0.0,0.0,0.0
918,4223.708176,1901.582589,614200000.0,456,2593.110243,1630.597933,5.0,2.0,0.0,1.0
950,4223.709169,1912.2419320000001,1644550016.0,456,2593.110243,1630.5989259999997,5.0,2.0,0.0,1.0
265,3932.611871,1673.450359,321007008.0,456,2593.110243,1339.501628,5.0,2.0,0.0,0.0
257,3916.6145420000003,1671.8152619999998,483792000.0,456,2593.110243,1323.5042990000002,5.0,1.0,1.0,0.0
251,3916.619186,1670.784326,42098600.0,456,2593.110243,1323.5089429999998,5.0,1.0,1.0,0.0
937,4061.6518950000004,1910.059901,1387440000.0,456,2593.110243,1468.5416520000003,5.0,1.0,0.0,1.0
225,4135.691824,1664.35914,81402496.0,456,2593.110243,1542.5815810000004,6.0,2.0,0.0,0.0
324,3608.509778,1692.993494,389859008.0,456,2593.110243,1015.399535,5.0,0.0,0.0,0.0
332,3608.50831,1694.2870280000002,4678790144.0,456,2593.110243,1015.3980670000001,5.0,0.0,0.0,0.0
1815,4311.728115,2194.809743,459369984.0,456,2593.110243,1718.6178719999998,4.0,2.0,0.0,2.0
1823,4311.723103,2196.01283,1186649984.0,456,2593.110243,1718.6128600000002,4.0,2.0,0.0,2.0
916,4166.687177000001,1900.47813,195580992.0,456,2593.110243,1573.5769340000006,4.0,2.0,1.0,1.0
888,4385.760090999999,1887.012007,3169420032.0,456,2593.110243,1792.649847999999,5.0,3.0,0.0,1.0
909,4166.686152,1896.293562,651430016.0,456,2593.110243,1573.5759090000001,4.0,2.0,1.0,1.0
263,3713.5387579999997,1673.2505039999999,45009700.0,456,2593.110243,1120.4285149999996,4.0,1.0,1.0,0.0
237,4078.6771009999998,1666.500708,341782016.0,456,2593.110243,1485.5668579999997,5.0,2.0,1.0,0.0
282,3754.565372,1679.4005940000002,448609984.0,456,2593.110243,1161.455129,5.0,0.0,1.0,0.0
361,3462.4517090000004,1702.0488879999998,476140000.0,456,2593.110243,869.3414660000003,5.0,0.0,-1.0,0.0
871,4547.816126,1880.862528,5322279936.0,456,2593.110243,1954.7058829999996,5.0,4.0,0.0,1.0
874,4547.813059,1881.2598829999997,2924260096.0,456,2593.110243,1954.702816,5.0,4.0,0.0,1.0
229,4094.666792,1665.263099,460771008.0,456,2593.110243,1501.556549,5.0,3.0,0.0,0.0
1672,4781.883905,2159.225978,832948992.0,456,2593.110243,2188.7736619999996,4.0,4.0,1.0,2.0
851,4636.838413,1874.347005,1717369984.0,456,2593.110243,2043.7281700000003,4.0,4.0,2.0,1.0
532,3672.4918390000003,1759.30755,1348930048.0,456,2593.110243,1079.3815960000002,3.0,2.0,1.0,0.0
1584,5000.965015999999,2133.598475,86061200.0,456,2593.110243,2407.854772999999,5.0,5.0,0.0,2.0
1614,4838.915885,2143.1997850000002,75892096.0,456,2593.110243,2245.8056420000003,5.0,4.0,0.0,2.0
798,4912.953368,1857.383183,144852992.0,456,2593.110243,2319.8431250000003,6.0,5.0,0.0,1.0
203,4548.817943,1657.5263009999999,919857984.0,456,2593.110243,1955.7077,5.0,4.0,2.0,0.0
223,4548.82969,1663.433207,444028000.0,456,2593.110243,1955.7194469999995,5.0,4.0,2.0,0.0
1749,4619.833406000001,2176.565956,212404992.0,456,2593.110243,2026.7231630000006,4.0,3.0,1.0,2.0
863,4531.8219070000005,1878.8449219999998,654014976.0,456,2593.110243,1938.7116640000004,5.0,3.0,1.0,1.0
867,4531.819467,1879.4167670000002,506327008.0,456,2593.110243,1938.7092240000002,5.0,3.0,1.0,1.0
243,4078.671474,1668.725526,77605904.0,456,2593.110243,1485.5612310000001,5.0,2.0,1.0,0.0
212,4443.812482,1659.147699,31373500.0,456,2593.110243,1850.7022390000002,6.0,3.0,1.0,0.0
915,4207.718909,1900.4730309999998,14220800.0,456,2593.110243,1614.608666,5.0,1.0,1.0,1.0
294,3770.5616189999996,1683.8055350000002,3392000000.0,456,2593.110243,1177.4513759999995,5.0,1.0,0.0,0.0
1775,4514.808357,2185.493521,63123800.0,456,2593.110243,1921.6981139999998,5.0,2.0,0.0,2.0
897,4426.785296999999,1893.238521,118528000.0,456,2593.110243,1833.6750539999994,6.0,2.0,0.0,1.0
882,4588.849979,1884.480161,125599000.0,456,2593.110243,1995.7397359999995,6.0,3.0,0.0,1.0
205,3786.559013,1657.813575,263295008.0,456,2593.110243,1193.44877,5.0,2.0,-1.0,0.0
302,3811.591902,1686.103707,214223008.0,456,2593.110243,1218.481659,6.0,0.0,0.0,0.0
1722,4676.860607,2169.6944510000003,1782339968.0,456,2593.110243,2083.7503639999995,5.0,3.0,0.0,2.0
1723,4457.787096999999,2170.335968,162540992.0,456,2593.110243,1864.6768539999994,4.0,2.0,1.0,2.0
1791,4457.761765,2189.43807,191227008.0,456,2593.110243,1864.651522,4.0,2.0,1.0,2.0
1004,3801.564379,1929.530791,11216799744.0,456,2593.110243,1208.4541359999998,3.0,1.0,1.0,1.0
1732,4676.858577,2171.8006600000003,1028360000.0,456,2593.110243,2083.748334,5.0,3.0,0.0,2.0
900,4369.771927000001,1893.750756,52185200.0,456,2593.110243,1776.6616840000006,5.0,2.0,1.0,1.0
912,4369.7892090000005,1898.837723,266535008.0,456,2593.110243,1776.6789660000004,5.0,2.0,1.0,1.0
1697,4838.916491,2163.426668,4664269824.0,456,2593.110243,2245.806248,5.0,4.0,0.0,2.0
1635,4984.98259,2150.465807,703774976.0,456,2593.110243,2391.8723469999995,5.0,4.0,1.0,2.0
862,4782.892363,1878.812475,629305024.0,456,2593.110243,2189.78212,4.0,4.0,3.0,1.0
194,4345.733283,1654.6713869999999,1348099968.0,456,2593.110243,1752.6230399999995,4.0,4.0,2.0,0.0
235,4345.7401,1666.290818,2772969984.0,456,2593.110243,1752.629857,4.0,4.0,2.0,0.0
1559,5041.9888359999995,2128.104297,15188200.0,456,2593.110243,2448.8785929999995,6.0,4.0,0.0,2.0
1694,4984.9728079999995,2163.094109,61594300.0,456,2593.110243,2391.8625649999994,5.0,4.0,1.0,2.0
1600,5204.0492380000005,2140.675907,137286000.0,456,2593.110243,2610.9389950000004,6.0,5.0,0.0,2.0
783,5059.001234,1853.065405,19808600.0,456,2593.110243,2465.890991,6.0,5.0,1.0,1.0
238,4183.701501,1666.603824,273305984.0,456,2593.110243,1590.5912579999995,4.0,3.0,2.0,0.0
241,4386.764753,1668.2632859999999,637148032.0,456,2593.110243,1793.6545100000003,5.0,3.0,2.0,0.0
323,4386.76676,1692.804748,305046016.0,456,2593.110243,1793.6565170000003,5.0,3.0,2.0,0.0
1822,4984.946927,2195.993954,853033024.0,456,2593.110243,2391.836684,5.0,4.0,1.0,2.0
1704,4822.898426,2165.182092,235438000.0,456,2593.110243,2229.7881829999997,5.0,3.0,1.0,2.0
1698,4822.910496,2163.621415,641489024.0,456,2593.110243,2229.8002530000003,5.0,3.0,1.0,2.0
1690,4879.955553,2162.363975,157726000.0,456,2593.110243,2286.8453099999997,6.0,3.0,0.0,2.0
1777,4717.899682,2185.9479260000003,573136000.0,456,2593.110243,2124.789439,6.0,2.0,0.0,2.0
855,4572.828987,1876.0191120000002,76105000.0,456,2593.110243,1979.7187439999998,6.0,2.0,1.0,1.0
1845,4254.679135,2199.301092,145199008.0,456,2593.110243,1661.5688920000002,3.0,2.0,1.0,2.0
171,4491.817891,1644.220803,41156400.0,456,2593.110243,1898.7076479999996,4.0,4.0,3.0,0.0
248,4021.6358990000003,1669.481091,456344992.0,456,2593.110243,1428.5256560000003,4.0,2.0,2.0,0.0
176,4532.828034,1648.476691,300315008.0,456,2593.110243,1939.717791,5.0,3.0,3.0,0.0
322,4224.710361,1692.108001,1406329984.0,456,2593.110243,1631.6001180000003,5.0,2.0,2.0,0.0
236,4694.867972,1666.3692429999999,1042019968.0,456,2593.110243,2101.757729,5.0,4.0,3.0,0.0
247,4427.782918999999,1669.4199199999998,127241000.0,456,2593.110243,1834.6726759999992,6.0,2.0,2.0,0.0
314,4840.938195000001,1690.377027,492320000.0,456,2593.110243,2247.8279520000006,5.0,4.0,4.0,0.0
407,2849.1015899999998,1713.2076100000002,138012992.0,407,2849.1015899999998,0.0,,,,
401,3052.177693,1710.80415,535942016.0,407,2849.1015899999998,203.07610300000033,1.0,0.0,0.0,0.0
311,3214.241677,1689.950733,638497024.0,407,2849.1015899999998,365.1400870000002,1.0,1.0,0.0,0.0
434,3052.167566,1722.822009,148396992.0,407,2849.1015899999998,203.06597600000032,1.0,0.0,0.0,0.0
371,3255.2615769999998,1704.192859,576251008.0,407,2849.1015899999998,406.159987,2.0,0.0,0.0,0.0
380,3255.253686,1706.613982,144148992.0,407,2849.1015899999998,406.15209600000026,2.0,0.0,0.0,0.0
963,3505.3294159999996,1915.736813,87172200.0,407,2849.1015899999998,656.2278259999998,1.0,1.0,0.0,1.0
305,3579.365345,1687.735841,52598600.0,407,2849.1015899999998,730.2637550000004,2.0,2.0,0.0,0.0
307,3376.2911710000003,1687.787139,127183000.0,407,2849.1015899999998,527.1895810000005,1.0,2.0,0.0,0.0
319,3417.312379,1691.705868,50080300.0,407,2849.1015899999998,568.2107890000002,2.0,1.0,0.0,0.0
297,3620.390828,1684.1826170000002,296060000.0,407,2849.1015899999998,771.2892380000003,3.0,1.0,0.0,0.0
330,3458.335615,1693.876593,1634930048.0,407,2849.1015899999998,609.2340250000002,3.0,0.0,0.0,0.0
941,3870.4504490000004,1910.6015949999999,200540992.0,407,2849.1015899999998,1021.3488590000006,2.0,2.0,0.0,1.0
952,3667.3845340000003,1913.084874,187724992.0,407,2849.1015899999998,818.2829440000005,1.0,2.0,0.0,1.0
958,3708.4106439999996,1914.259268,191004992.0,407,2849.1015899999998,859.3090539999998,2.0,1.0,0.0,1.0
370,3214.235236,1703.895568,124481000.0,407,2849.1015899999998,365.1336460000002,1.0,1.0,0.0,0.0
278,3782.439142,1678.099562,475289984.0,407,2849.1015899999998,933.3375520000004,3.0,2.0,0.0,0.0
222,3944.503514,1663.306285,69372000.0,407,2849.1015899999998,1095.4019240000002,3.0,3.0,0.0,0.0
250,3741.4142420000003,1669.880643,117779000.0,407,2849.1015899999998,892.3126520000005,2.0,3.0,0.0,0.0
261,3522.349575,1672.8433949999999,70909600.0,407,2849.1015899999998,673.2479850000004,1.0,2.0,1.0,0.0
365,3255.266393,1703.2391489999998,39970500.0,407,2849.1015899999998,406.1648030000001,2.0,0.0,0.0,0.0
947,3911.481603,1911.80245,419240000.0,407,2849.1015899999998,1062.3800130000004,3.0,1.0,0.0,1.0
291,3823.4725590000003,1682.3559739999998,334328000.0,407,2849.1015899999998,974.3709690000005,4.0,1.0,0.0,0.0
254,3766.447882,1671.045286,21011300.0,407,2849.1015899999998,917.3462920000002,3.0,1.0,1.0,0.0
321,3661.4218200000005,1692.046649,501712992.0,407,2849.1015899999998,812.3202300000007,4.0,0.0,0.0,0.0
896,4032.518192,1892.986761,168451008.0,407,2849.1015899999998,1183.4166020000002,2.0,3.0,0.0,1.0
929,4235.594869,1906.943428,705676992.0,407,2849.1015899999998,1386.4932789999998,3.0,3.0,0.0,1.0
914,4032.516875,1899.094346,6054930.0,407,2849.1015899999998,1183.415285,2.0,3.0,0.0,1.0
923,4073.54234,1903.8184010000002,496641984.0,407,2849.1015899999998,1224.4407500000002,3.0,2.0,0.0,1.0
336,3579.373842,1695.1583920000003,295719008.0,407,2849.1015899999998,730.2722520000002,2.0,2.0,0.0,0.0
373,3579.3614789999997,1704.7845260000001,7218480.0,407,2849.1015899999998,730.2598889999999,2.0,2.0,0.0,0.0
348,3417.3064719999998,1698.1097140000002,615227008.0,407,2849.1015899999998,568.204882,2.0,1.0,0.0,0.0
234,4147.577657,1665.818284,55603900.0,407,2849.1015899999998,1298.476067,4.0,3.0,0.0,0.0
422,4147.585905,1718.324895,151375008.0,407,2849.1015899999998,1298.4843150000002,4.0,3.0,0.0,0.0
199,4106.555384,1656.946522,352190016.0,407,2849.1015899999998,1257.4537940000005,3.0,4.0,0.0,0.0
335,3620.4007060000004,1695.1301449999999,970145984.0,407,2849.1015899999998,771.2991160000006,3.0,1.0,0.0,0.0
940,4114.575239,1910.366597,69678496.0,407,2849.1015899999998,1265.473649,4.0,1.0,0.0,1.0
920,4276.6189859999995,1902.2732190000002,90010600.0,407,2849.1015899999998,1427.5173959999997,4.0,2.0,0.0,1.0
260,3985.5435409999995,1672.423939,57827700.0,407,2849.1015899999998,1136.4419509999998,4.0,2.0,0.0,0.0
1800,4323.615037,2192.370245,409744000.0,407,2849.1015899999998,1474.5134469999998,2.0,3.0,0.0,2.0
886,4438.6728,1886.488861,438326016.0,407,2849.1015899999998,1589.5712100000005,4.0,3.0,0.0,1.0
1798,4526.6850859999995,2192.048494,466824992.0,407,2849.1015899999998,1677.5834959999997,3.0,3.0,0.0,2.0
1807,4526.6907710000005,2193.281524,310553984.0,407,2849.1015899999998,1677.5891810000007,3.0,3.0,0.0,2.0
878,4276.638436,1882.368586,935625024.0,407,2849.1015899999998,1427.5368460000004,4.0,2.0,0.0,1.0
1848,4364.639955,2199.788772,366868992.0,407,2849.1015899999998,1515.5383649999999,3.0,2.0,0.0,2.0
189,4293.639414,1653.357252,28507400.0,407,2849.1015899999998,1444.5378240000005,4.0,3.0,1.0,0.0
231,4309.615567,1665.5193570000001,2099410048.0,407,2849.1015899999998,1460.513977,4.0,4.0,0.0,0.0
181,4252.609569,1650.2455400000001,119784000.0,407,2849.1015899999998,1403.5079790000004,3.0,4.0,1.0,0.0
1696,4688.750564,2163.368018,841836032.0,407,2849.1015899999998,1839.6489740000002,3.0,4.0,0.0,2.0
1641,4688.740419,2152.9424510000003,870627968.0,407,2849.1015899999998,1839.638829,3.0,4.0,0.0,2.0
850,4584.740722,1874.285071,3684879872.0,407,2849.1015899999998,1735.6391319999998,4.0,3.0,1.0,1.0
1737,4729.775251,2173.060329,432327008.0,407,2849.1015899999998,1880.6736610000003,4.0,3.0,0.0,2.0
1720,4729.775277000001,2168.390825,258820992.0,407,2849.1015899999998,1880.6736870000009,4.0,3.0,0.0,2.0
1733,4891.823204,2171.954732,826753984.0,407,2849.1015899999998,2042.7216140000005,4.0,4.0,0.0,2.0
1712,4891.837904999999,2166.111649,620825984.0,407,2849.1015899999998,2042.7363149999996,4.0,4.0,0.0,2.0
186,4455.683113,1652.893729,115588000.0,407,2849.1015899999998,1606.5815230000003,4.0,4.0,1.0,0.0
245,4398.6501450000005,1669.0292550000001,2701060096.0,407,2849.1015899999998,1549.5485550000008,3.0,4.0,2.0,0.0
1646,4834.793318,2154.267803,191815008.0,407,2849.1015899999998,1985.6917280000002,3.0,4.0,1.0,2.0
1671,4875.824435,2158.7042760000004,99282896.0,407,2849.1015899999998,2026.7228450000007,4.0,3.0,1.0,2.0
196,4601.731089,1655.462174,1310560000.0,407,2849.1015899999998,1752.6294990000001,4.0,4.0,2.0,0.0
273,4747.797758,1674.486545,588987008.0,407,2849.1015899999998,1898.696168,4.0,4.0,3.0,0.0
1224,2445.12839,2022.002991,51972400.0,1224,2445.12839,0.0,,,,
1213,2648.2057670000004,2016.4310899999998,2074690048.0,1224,2445.12839,203.07737700000052,1.0,0.0,0.0,0.0
1155,3013.339615,1989.5380089999999,1084620032.0,1224,2445.12839,568.211225,2.0,1.0,0.0,0.0
1184,2851.283069,2004.0358760000001,2867310080.0,1224,2445.12839,406.1546790000002,2.0,0.0,0.0,0.0
1192,2851.2825620000003,2006.042871,6658570240.0,1224,2445.12839,406.1541720000005,2.0,0.0,0.0,0.0
1203,2502.1473960000003,2012.150888,265390000.0,1224,2445.12839,57.019006000000445,1.0,0.0,-1.0,0.0
1079,3378.4663969999997,1964.8482800000002,786820992.0,1224,2445.12839,933.3380069999998,3.0,2.0,0.0,0.0
1112,3175.385422,1975.994775,1996589952.0,1224,2445.12839,730.257032,2.0,2.0,0.0,0.0
1117,3159.396081,1977.554095,234147008.0,1224,2445.12839,714.267691,2.0,1.0,1.0,0.0
1130,3378.4686560000005,1980.128106,5372389888.0,1224,2445.12839,933.3402660000006,3.0,2.0,0.0,0.0
1161,3013.333384,1990.5916489999997,2982560000.0,1224,2445.12839,568.2049940000002,2.0,1.0,0.0,0.0
1118,3216.41095,1977.894064,1732729984.0,1224,2445.12839,771.2825600000001,3.0,1.0,0.0,0.0
1040,3581.5496829999997,1947.1819269999999,1238550016.0,1224,2445.12839,1136.4212929999999,4.0,2.0,0.0,0.0
1058,3540.5207840000003,1955.4584539999998,6491350016.0,1224,2445.12839,1095.3923940000004,3.0,3.0,0.0,0.0
1063,3581.5434880000003,1958.0176760000002,7084460032.0,1224,2445.12839,1136.4150980000004,4.0,2.0,0.0,0.0
1101,3175.39079,1970.5673239999999,753374016.0,1224,2445.12839,730.2624000000001,2.0,2.0,0.0,0.0
1065,3321.449591,1958.702883,510726016.0,1224,2445.12839,876.3212010000002,2.0,2.0,1.0,0.0
1016,3540.5229740000004,1932.3845019999999,439039008.0,1224,2445.12839,1095.3945840000006,3.0,3.0,0.0,0.0
1057,3362.473044,1955.442761,132220000.0,1224,2445.12839,917.344654,3.0,1.0,1.0,0.0
1083,3362.4756899999998,1965.446184,1470840064.0,1224,2445.12839,917.3472999999999,3.0,1.0,1.0,0.0
1046,3743.5958979999996,1949.755216,4372009984.0,1224,2445.12839,1298.4675079999997,4.0,3.0,0.0,0.0
1149,3216.413498,1986.1729489999998,6243570176.0,1224,2445.12839,771.285108,3.0,1.0,0.0,0.0
1099,3419.4915969999997,1969.8827350000001,11370000384.0,1224,2445.12839,974.3632069999999,4.0,1.0,0.0,0.0
1124,3070.355941,1979.13445,147492992.0,1224,2445.12839,625.227551,3.0,1.0,-1.0,0.0
1009,3946.679879,1931.118047,2215729920.0,1224,2445.12839,1501.551489,5.0,3.0,0.0,0.0
1096,3419.486125,1969.308947,3196369920.0,1224,2445.12839,974.357735,4.0,1.0,0.0,0.0
987,3905.658529,1922.578679,37093000.0,1224,2445.12839,1460.530139,4.0,4.0,0.0,0.0
1018,3686.560039,1933.6688510000001,1488140032.0,1224,2445.12839,1241.431649,3.0,3.0,1.0,0.0
1048,3784.6169090000003,1951.7060850000003,2380450048.0,1224,2445.12839,1339.4885190000005,5.0,2.0,0.0,0.0
1105,3524.5359710000002,1972.6822280000001,488587008.0,1224,2445.12839,1079.4075810000004,3.0,2.0,1.0,0.0
979,4108.739012,1920.6252510000002,3499059968.0,1224,2445.12839,1663.6106220000001,5.0,4.0,0.0,0.0
990,4108.738622999999,1923.717747,166512992.0,1224,2445.12839,1663.6102329999994,5.0,4.0,0.0,0.0
1075,3622.5765509999997,1962.391713,385456000.0,1224,2445.12839,1177.4481609999998,5.0,1.0,0.0,0.0
1081,3622.5692240000003,1964.905535,3786880000.0,1224,2445.12839,1177.4408340000005,5.0,1.0,0.0,0.0
1179,2908.3022760000003,2001.2186609999999,295052000.0,1224,2445.12839,463.1738860000005,3.0,0.0,-1.0,0.0
1131,3273.435095,1980.2639800000002,312024000.0,1224,2445.12839,828.306705,4.0,1.0,-1.0,0.0
982,4092.7436909999997,1921.5762739999998,407632000.0,1224,2445.12839,1647.6153009999998,5.0,3.0,1.0,0.0
983,4149.775861,1921.930323,62637300.0,1224,2445.12839,1704.6474710000002,6.0,3.0,0.0,0.0
1165,3054.364275,1992.3173190000002,13504100352.0,1224,2445.12839,609.235885,3.0,0.0,0.0,0.0
1054,3889.6591329999997,1954.8658870000002,2673750016.0,1224,2445.12839,1444.5307429999998,4.0,3.0,1.0,0.0
946,4254.7949530000005,1911.79622,37274200.0,1224,2445.12839,1809.6665630000007,5.0,4.0,1.0,0.0
1008,4254.796927,1930.968059,3950089984.0,1224,2445.12839,1809.6685370000005,5.0,4.0,1.0,0.0
1119,3257.438882,1978.1163329999997,5006470144.0,1224,2445.12839,812.3104920000001,4.0,0.0,0.0,0.0
1121,3460.5175710000003,1978.250596,5642789888.0,1224,2445.12839,1015.3891810000005,5.0,0.0,0.0,0.0
1133,3257.43951,1980.424331,17804099584.0,1224,2445.12839,812.3111200000003,4.0,0.0,0.0,0.0
1157,3111.3867809999997,1989.894551,482640992.0,1224,2445.12839,666.2583909999998,4.0,0.0,-1.0,0.0
951,4238.798825,1912.6770609999999,50007600.0,1224,2445.12839,1793.670435,5.0,3.0,2.0,0.0
1027,4051.7204229999998,1940.926886,5557660160.0,1224,2445.12839,1606.592033,4.0,4.0,1.0,0.0
1164,3314.470555,1991.8267309999999,83576800.0,1224,2445.12839,869.342165,5.0,0.0,-1.0,0.0
964,4197.7599789999995,1915.7420339999999,2571239936.0,1224,2445.12839,1752.6315889999996,4.0,4.0,2.0,0.0
1475,2739.186613,2086.913258,312100992.0,1475,2739.186613,0.0,,,,
1458,2885.245592,2080.944743,995865984.0,1475,2739.186613,146.05897900000036,0.0,0.0,1.0,0.0
1460,2942.268149,2081.281125,276996000.0,1475,2739.186613,203.08153600000014,1.0,0.0,0.0,0.0
1417,3088.324669,2073.1016280000003,3714459904.0,1475,2739.186613,349.13805600000023,1.0,0.0,1.0,0.0
1438,3088.3268559999997,2077.0952,15463600128.0,1475,2739.186613,349.1402429999998,1.0,0.0,1.0,0.0
1343,3250.383809,2056.514836,1070329984.0,1475,2739.186613,511.1971960000001,1.0,1.0,1.0,0.0
1379,3047.3059359999997,2065.284196,258026000.0,1475,2739.186613,308.1193229999999,0.0,1.0,1.0,0.0
1315,3453.4562770000002,2049.925503,138603008.0,1475,2739.186613,714.2696640000004,2.0,1.0,1.0,0.0
1363,3453.457342,2061.1472059999996,24365700.0,1475,2739.186613,714.2707290000003,2.0,1.0,1.0,0.0
1366,3453.462158,2062.372766,7511280128.0,1475,2739.186613,714.275545,2.0,1.0,1.0,0.0
1280,3396.4387509999997,2041.244636,78911400.0,1475,2739.186613,657.2521379999998,1.0,1.0,2.0,0.0
1287,3412.433526,2042.9137859999998,355694016.0,1475,2739.186613,673.246913,1.0,2.0,1.0,0.0
1303,3615.5119130000003,2047.1208980000001,101532000.0,1475,2739.186613,876.3253000000004,2.0,2.0,1.0,0.0
1237,3412.4331439999996,2030.2267239999999,5217840128.0,1475,2739.186613,673.2465309999998,1.0,2.0,1.0,0.0
1431,3291.4040440000003,2075.903199,10826800128.0,1475,2739.186613,552.2174310000005,2.0,0.0,1.0,0.0
1307,3615.5115840000003,2047.655314,7572179968.0,1475,2739.186613,876.3249710000005,2.0,2.0,1.0,0.0
1247,3599.5149380000003,2033.261539,157759008.0,1475,2739.186613,860.3283250000004,2.0,1.0,2.0,0.0
1358,3250.381164,2060.120042,7927620096.0,1475,2739.186613,511.19455100000005,1.0,1.0,1.0,0.0
1240,3558.485732,2031.495318,75195296.0,1475,2739.186613,819.2991190000002,1.0,2.0,2.0,0.0
1279,3599.521102,2041.1513719999998,4313290240.0,1475,2739.186613,860.3344890000003,2.0,1.0,2.0,0.0
1318,3047.301042,2050.728653,95170496.0,1475,2739.186613,308.1144290000002,0.0,1.0,1.0,0.0
1320,3266.3713079999998,2050.8728579999997,112508000.0,1475,2739.186613,527.1846949999999,1.0,2.0,0.0,0.0
1334,3437.466664,2054.592529,1630610048.0,1475,2739.186613,698.2800510000002,2.0,0.0,2.0,0.0
1387,3494.4818840000003,2067.494334,1575079936.0,1475,2739.186613,755.2952710000004,3.0,0.0,1.0,0.0
1297,3437.455665,2045.376607,34321300.0,1475,2739.186613,698.2690520000001,2.0,0.0,2.0,0.0
1300,3396.441795,2045.8807160000001,1915239936.0,1475,2739.186613,657.2551820000003,1.0,1.0,2.0,0.0
1252,3964.650358,2034.675387,32008900.0,1475,2739.186613,1225.463745,3.0,2.0,2.0,0.0
1183,3355.4100320000002,2003.732979,511553984.0,1475,2739.186613,616.2234190000004,0.0,2.0,2.0,0.0
1212,3720.543139,2014.853832,1242610048.0,1475,2739.186613,981.356526,1.0,3.0,2.0,0.0
1368,3923.628571,2063.3123600000004,526382016.0,1475,2739.186613,1184.4419580000003,2.0,3.0,2.0,0.0
1298,3802.5703700000004,2045.381663,374265984.0,1475,2739.186613,1063.3837570000005,3.0,1.0,2.0,0.0
1291,3558.4887240000003,2043.693118,2111350016.0,1475,2739.186613,819.3021110000004,1.0,2.0,2.0,0.0
1308,3761.560618,2048.787232,2030870016.0,1475,2739.186613,1022.3740050000001,2.0,2.0,2.0,0.0
1238,4126.695757,2030.552929,266771008.0,1475,2739.186613,1387.5091440000006,3.0,3.0,2.0,0.0
1230,3882.5894310000003,2025.7999960000002,201616000.0,1475,2739.186613,1143.4028180000005,1.0,4.0,2.0,0.0
1229,3907.6271520000005,2025.627561,387620000.0,1475,2739.186613,1168.4405390000006,2.0,2.0,3.0,0.0
1205,3679.5147420000003,2012.626944,632444992.0,1475,2739.186613,940.3281290000004,0.0,4.0,2.0,0.0
1126,3314.371847,1979.565712,104290000.0,1475,2739.186613,575.185234,-1.0,3.0,2.0,0.0
1236,3314.382823,2030.213472,1309139968.0,1475,2739.186613,575.1962100000001,-1.0,3.0,2.0,0.0
1178,3111.292491,2000.766232,81238600.0,1475,2739.186613,372.1058780000003,-2.0,3.0,2.0,0.0
1214,2498.038005,2016.886652,44363200.0,1214,2498.038005,0.0,,,,
1210,2701.1226269999997,2014.194782,690164992.0,1214,2498.038005,203.08462199999985,1.0,0.0,0.0,0.0
1162,3066.252409,1991.0688489999998,612344000.0,1214,2498.038005,568.2144040000003,2.0,1.0,0.0,0.0
1171,3066.260457,1996.336039,202691008.0,1214,2498.038005,568.222452,2.0,1.0,0.0,0.0
1182,2539.065067,2002.2848329999997,52238600.0,1214,2498.038005,41.027062000000114,1.0,-1.0,0.0,0.0
1197,2555.07053,2009.656108,27273800.0,1214,2498.038005,57.03252500000008,1.0,0.0,-1.0,0.0
1152,3269.328952,1987.452175,1625219968.0,1214,2498.038005,771.290947,3.0,1.0,0.0,0.0
1090,3431.3719479999995,1968.3011350000002,653457984.0,1214,2498.038005,933.3339429999996,3.0,2.0,0.0,0.0
1109,3228.298229,1973.891943,432615008.0,1214,2498.038005,730.2602240000001,2.0,2.0,0.0,0.0
1122,3431.3778380000003,1978.406088,339580992.0,1214,2498.038005,933.3398330000005,3.0,2.0,0.0,0.0
1188,2904.1964989999997,2004.713836,2083440000.0,1214,2498.038005,406.1584939999998,2.0,0.0,0.0,0.0
1148,2758.134524,1986.062252,72870896.0,1214,2498.038005,260.09651900000017,2.0,0.0,-1.0,0.0
1050,3634.4640340000005,1952.4711719999998,1000979968.0,1214,2498.038005,1136.4260290000007,4.0,2.0,0.0,0.0
1084,3634.449489,1966.120955,1334599936.0,1214,2498.038005,1136.4114840000002,4.0,2.0,0.0,0.0
1167,3107.276939,1994.5598489999998,2888039936.0,1214,2498.038005,609.238934,3.0,0.0,0.0,0.0
1038,3593.4084380000004,1946.173532,9895170048.0,1214,2498.038005,1095.3704330000005,3.0,3.0,0.0,0.0
1002,3593.437532,1929.274048,21713800.0,1214,2498.038005,1095.399527,3.0,3.0,0.0,0.0
1021,3796.525731,1935.628941,341684000.0,1214,2498.038005,1298.4877260000003,4.0,3.0,0.0,0.0
995,3999.594817,1924.4217019999999,303051008.0,1214,2498.038005,1501.5568120000003,5.0,3.0,0.0,0.0
1000,3837.540742,1927.379417,9717070.0,1214,2498.038005,1339.5027370000003,5.0,2.0,0.0,0.0
1001,3780.523361,1928.018262,19997200.0,1214,2498.038005,1282.4853560000001,4.0,2.0,1.0,0.0
1137,3310.357042,1981.1927510000003,1987190016.0,1214,2498.038005,812.3190370000002,4.0,0.0,0.0,0.0
1142,3310.356622,1983.499875,2135689984.0,1214,2498.038005,812.3186169999999,4.0,0.0,0.0,0.0
930,3958.565143,1907.0409399999999,317968000.0,1214,2498.038005,1460.527138,4.0,4.0,0.0,0.0
1015,3958.5628229999998,1932.048139,12522200064.0,1214,2498.038005,1460.5248179999999,4.0,4.0,0.0,0.0
971,4161.640279,1919.0355329999998,231303008.0,1214,2498.038005,1663.6022740000003,5.0,4.0,0.0,0.0
974,4161.651267,1919.848732,673009024.0,1214,2498.038005,1663.6132620000003,5.0,4.0,0.0,0.0
968,4145.658512,1917.5505100000003,84328096.0,1214,2498.038005,1647.620507,5.0,3.0,1.0,0.0
1102,3675.4814619999997,1970.6067280000002,24307600.0,1214,2498.038005,1177.4434569999999,5.0,1.0,0.0,0.0
1128,3513.432093,1979.8810489999998,1221129984.0,1214,2498.038005,1015.394088,5.0,0.0,0.0,0.0
1051,3796.537193,1952.534693,3312399872.0,1214,2498.038005,1298.4991880000002,4.0,3.0,0.0,0.0
566,2658.154928,1770.1366269999999,302137984.0,566,2658.154928,0.0,,,,
521,2861.235611,1756.294869,206671008.0,566,2658.154928,203.08068300000014,1.0,0.0,0.0,0.0
524,2861.234222,1757.5092379999999,21730199552.0,566,2658.154928,203.07929400000012,1.0,0.0,0.0,0.0
470,3023.284318,1735.639973,113713000.0,566,2658.154928,365.12939000000006,1.0,1.0,0.0,0.0
519,3226.366348,1755.95945,9510920192.0,566,2658.154928,568.2114200000001,2.0,1.0,0.0,0.0
477,3007.294778,1738.072168,302199008.0,566,2658.154928,349.13985,1.0,0.0,1.0,0.0
527,3064.315268,1758.461469,15562000384.0,566,2658.154928,406.1603399999999,2.0,0.0,0.0,0.0
421,3169.346256,1717.742266,2126780032.0,566,2658.154928,511.1913279999999,1.0,1.0,1.0,0.0
436,3185.339667,1723.104771,90881104.0,566,2658.154928,527.1847390000003,1.0,2.0,0.0,0.0
438,3388.4202939999996,1723.768427,250688992.0,566,2658.154928,730.2653659999996,2.0,2.0,0.0,0.0
511,2820.2107920000003,1752.008925,2125209984.0,566,2658.154928,162.05586400000038,0.0,1.0,0.0,0.0
444,3080.313418,1726.73859,554676992.0,566,2658.154928,422.15849000000026,2.0,1.0,-1.0,0.0
442,3372.4249219999997,1725.171625,719524992.0,566,2658.154928,714.2699939999998,2.0,1.0,1.0,0.0
460,3210.370152,1732.879486,4535490048.0,566,2658.154928,552.215224,2.0,0.0,1.0,0.0
488,2902.259795,1741.6878600000002,2398670080.0,566,2658.154928,244.104867,2.0,-1.0,0.0,0.0
564,2918.250728,1767.976295,838073024.0,566,2658.154928,260.09580000000005,2.0,0.0,-1.0,0.0
481,3023.292867,1739.306795,20703399936.0,566,2658.154928,365.1379390000002,1.0,1.0,0.0,0.0
455,3039.2804760000004,1731.4576739999998,45048700.0,566,2658.154928,381.12554800000044,1.0,2.0,-1.0,0.0
463,2982.262905,1733.2692079999997,900176000.0,566,2658.154928,324.1079770000001,0.0,2.0,0.0,0.0
271,3753.5595829999997,1674.090558,18841700.0,566,2658.154928,1095.4046549999998,3.0,3.0,0.0,0.0
500,3737.551583,1745.6301210000001,146206000.0,566,2658.154928,1079.396655,3.0,2.0,1.0,0.0
414,3413.4355140000002,1715.21576,405528000.0,566,2658.154928,755.2805860000003,3.0,0.0,1.0,0.0
428,2836.202418,1720.0892920000001,280332000.0,566,2658.154928,178.04748999999993,0.0,2.0,-1.0,0.0
453,2674.157766,1731.1809739999999,55228700.0,566,2658.154928,16.002837999999883,0.0,1.0,-1.0,0.0
368,3201.340896,1703.69942,144440000.0,566,2658.154928,543.1859680000002,1.0,3.0,-1.0,0.0
561,3575.492925,1767.481859,845777024.0,566,2658.154928,917.3379970000001,3.0,1.0,1.0,0.0
497,2998.259707,1744.735352,49453100.0,566,2658.154928,340.10477900000024,0.0,3.0,-1.0,0.0
574,3429.446255,1773.5925989999998,1766210048.0,566,2658.154928,771.2913269999999,3.0,1.0,0.0,0.0
1468,2938.1556539999997,2084.110657,625838016.0,1468,2938.1556539999997,0.0,,,,
1400,3141.244995,2069.365511,40736100.0,1468,2938.1556539999997,203.08934100000033,1.0,0.0,0.0,0.0
1440,3141.240264,2077.207335,1110850048.0,1468,2938.1556539999997,203.08461000000034,1.0,0.0,0.0,0.0
1446,3141.2382780000003,2077.555737,2126470016.0,1468,2938.1556539999997,203.08262400000058,1.0,0.0,0.0,0.0
1354,3303.291134,2059.2999,1279840000.0,1468,2938.1556539999997,365.13548000000037,1.0,1.0,0.0,0.0
1360,3506.379593,2060.5004489999997,949430016.0,1468,2938.1556539999997,568.2239390000004,2.0,1.0,0.0,0.0
1362,3506.3773920000003,2060.895157,458136000.0,1468,2938.1556539999997,568.2217380000006,2.0,1.0,0.0,0.0
1470,2995.188366,2085.408853,64021600.0,1468,2938.1556539999997,57.032712000000174,1.0,0.0,-1.0,0.0
1292,3465.343461,2043.929102,1276249984.0,1468,2938.1556539999997,527.1878070000002,1.0,2.0,0.0,0.0
1313,3668.431612,2049.658292,662641024.0,1468,2938.1556539999997,730.2759580000002,2.0,2.0,0.0,0.0
1272,3449.342037,2038.8386039999998,684041984.0,1468,2938.1556539999997,511.1863830000002,1.0,1.0,1.0,0.0
1437,3344.3148149999997,2076.992651,1162840064.0,1468,2938.1556539999997,406.15916100000004,2.0,0.0,0.0,0.0
1364,3303.296929,2061.5324969999997,715715968.0,1468,2938.1556539999997,365.1412750000004,1.0,1.0,0.0,0.0
1374,3709.450029,2064.317452,1935600000.0,1468,2938.1556539999997,771.2943750000004,3.0,1.0,0.0,0.0
1235,3611.400717,2028.724748,102152000.0,1468,2938.1556539999997,673.2450630000003,1.0,2.0,1.0,0.0
1245,3830.4791630000004,2032.9074239999998,668457024.0,1468,2938.1556539999997,892.3235090000007,2.0,3.0,0.0,0.0
1352,3830.477797,2059.040755,653974016.0,1468,2938.1556539999997,892.3221430000003,2.0,3.0,0.0,0.0
1206,4033.5810590000006,2013.12046,2314769920.0,1468,2938.1556539999997,1095.4254050000009,3.0,3.0,0.0,0.0
1310,3652.4133090000005,2049.29252,1788359936.0,1468,2938.1556539999997,714.2576550000008,2.0,1.0,1.0,0.0
1309,3490.379658,2048.859986,375428000.0,1468,2938.1556539999997,552.2240040000001,2.0,0.0,1.0,0.0
1469,3547.397289,2084.450684,212714000.0,1468,2938.1556539999997,609.2416350000003,3.0,0.0,0.0,0.0
1311,3814.4667189999996,2049.40022,1407129984.0,1468,2938.1556539999997,876.3110649999999,2.0,2.0,1.0,0.0
1266,4179.642851,2037.21832,2108610048.0,1468,2938.1556539999997,1241.487197,3.0,3.0,1.0,0.0
1372,3449.333776,2063.907792,1037180032.0,1468,2938.1556539999997,511.17812200000026,1.0,1.0,1.0,0.0
1254,3693.472231,2035.416559,56779600.0,1468,2938.1556539999997,755.3165770000005,3.0,0.0,1.0,0.0
1425,3668.389386,2075.255343,3390820096.0,1468,2938.1556539999997,730.2337320000001,2.0,2.0,0.0,0.0
1478,2939.165364,2087.506735,65163900.0,1478,2939.165364,0.0,,,,
1357,3304.289052,2059.646222,523692992.0,1478,2939.165364,365.12368800000013,1.0,1.0,0.0,0.0
1434,3142.2449070000002,2076.688081,562044032.0,1478,2939.165364,203.07954300000029,1.0,0.0,0.0,0.0
1447,3142.235613,2077.566844,283471008.0,1478,2939.165364,203.07024899999988,1.0,0.0,0.0,0.0
1350,3507.37485,2058.84067,1109090048.0,1478,2939.165364,568.2094860000002,2.0,1.0,0.0,0.0
1288,3450.3535439999996,2042.9817079999998,170424000.0,1478,2939.165364,511.18817999999965,1.0,1.0,1.0,0.0
1228,3669.4315659999997,2025.5168670000003,813300992.0,1478,2939.165364,730.2662019999998,2.0,2.0,0.0,0.0
1274,3466.348003,2039.3843739999998,286963008.0,1478,2939.165364,527.1826390000001,1.0,2.0,0.0,0.0
1353,3507.374715,2059.236239,106215000.0,1478,2939.165364,568.209351,2.0,1.0,0.0,0.0
1406,3345.322493,2070.0031059999997,500268000.0,1478,2939.165364,406.15712900000017,2.0,0.0,0.0,0.0
1268,3653.438308,2038.173587,279412000.0,1478,2939.165364,714.2729439999998,2.0,1.0,1.0,0.0
1325,3669.438904,2052.093435,90792000.0,1478,2939.165364,730.2735400000001,2.0,2.0,0.0,0.0
1258,3815.4875899999997,2036.1948329999998,86314600.0,1478,2939.165364,876.3222259999998,2.0,2.0,1.0,0.0
1316,3101.201767,2050.3817129999998,79147600.0,1478,2939.165364,162.03640300000006,0.0,1.0,0.0,0.0
1322,3491.379988,2051.16811,82072896.0,1478,2939.165364,552.2146240000002,2.0,0.0,1.0,0.0
1482,4034.580625,2088.949984,821102016.0,1478,2939.165364,1095.415261,3.0,3.0,0.0,0.0
1294,3977.533375,2044.2709079999997,40453000.0,1478,2939.165364,1038.368011,2.0,3.0,1.0,0.0
1265,3694.457707,2037.0905010000001,56565600.0,1478,2939.165364,755.2923430000001,3.0,0.0,1.0,0.0
381,3053.188052,1706.6636649999998,15939000.0,381,3053.188052,0.0,,,,
326,3418.31474,1693.1298370000002,85710000.0,381,3053.188052,365.12668799999983,1.0,1.0,0.0,0.0
430,3256.2604460000002,1721.1295539999999,386700000.0,381,3053.188052,203.07239400000026,1.0,0.0,0.0,0.0
349,3215.237929,1698.173735,11775200.0,381,3053.188052,162.04987699999992,0.0,1.0,0.0,0.0
379,3256.268082,1706.003253,89430200.0,381,3053.188052,203.08003000000008,1.0,0.0,0.0,0.0
269,3783.4398340000002,1673.782584,377708000.0,381,3053.188052,730.2517820000003,2.0,2.0,0.0,0.0
281,3580.3789020000004,1679.379749,45407000.0,381,3053.188052,527.1908500000004,1.0,2.0,0.0,0.0
304,3621.4019439999997,1687.4312350000002,520660000.0,381,3053.188052,568.2138919999998,2.0,1.0,0.0,0.0
320,3459.34654,1692.0238960000001,268945984.0,381,3053.188052,406.15848800000003,2.0,0.0,0.0,0.0
347,3580.372143,1697.5873609999999,35863300.0,381,3053.188052,527.1840910000001,1.0,2.0,0.0,0.0
226,3945.499314,1664.5993349999999,109068000.0,381,3053.188052,892.3112620000002,2.0,3.0,0.0,0.0
221,4148.585703,1662.776372,94225104.0,381,3053.188052,1095.3976509999998,3.0,3.0,0.0,0.0
280,3824.481556,1679.0179859999998,155528992.0,381,3053.188052,771.2935040000002,3.0,1.0,0.0,0.0
339,3783.450427,1696.082988,34163700.0,381,3053.188052,730.2623750000002,2.0,2.0,0.0,0.0
202,4294.646470000001,1657.32589,33611900.0,381,3053.188052,1241.4584180000006,3.0,3.0,1.0,0.0
337,3662.42393,1695.9518079999998,63788800.0,381,3053.188052,609.235878,3.0,0.0,0.0,0.0
1389,3194.148739,2067.559688,152956992.0,1389,3194.148739,0.0,,,,
1302,3356.203375,2046.7502739999998,38251800.0,1389,3194.148739,162.05463599999985,0.0,1.0,0.0,0.0
1331,3356.2107960000003,2054.1904170000003,41508700.0,1389,3194.148739,162.0620570000001,0.0,1.0,0.0,0.0
1332,3559.2871939999995,2054.217479,70818600.0,1389,3194.148739,365.13845499999934,1.0,1.0,0.0,0.0
1405,3397.224839,2069.819752,65798400.0,1389,3194.148739,203.07609999999977,1.0,0.0,0.0,0.0
1409,3194.163262,2070.50831,79120496.0,1389,3194.148739,0.014522999999826425,0.0,0.0,0.0,0.0
1283,3518.2580869999997,2041.9064620000001,36590800.0,1389,3194.148739,324.1093479999995,0.0,2.0,0.0,0.0
1285,3518.258801,2042.831808,78509296.0,1389,3194.148739,324.11006199999974,0.0,2.0,0.0,0.0
1328,3559.287505,2054.05554,25268900.0,1389,3194.148739,365.1387659999996,1.0,1.0,0.0,0.0
1243,3705.3499090000005,2032.3446850000003,23313900.0,1389,3194.148739,511.2011700000003,1.0,1.0,1.0,0.0
1275,3705.335525,2040.44405,111971000.0,1389,3194.148739,511.18678599999976,1.0,1.0,1.0,0.0
1420,3397.2543950000004,2074.013273,144980000.0,1389,3194.148739,203.10565600000018,1.0,0.0,0.0,0.0
1233,3664.3179210000003,2028.4833989999997,16734000.0,1389,3194.148739,470.1691820000001,0.0,2.0,1.0,0.0
1264,3867.422727,2036.9364239999998,1046140032.0,1389,3194.148739,673.2739879999999,1.0,2.0,1.0,0.0
1340,3721.3742030000003,2055.872391,394299008.0,1389,3194.148739,527.2254640000001,1.0,2.0,0.0,0.0
565,2711.078877,1770.0731640000001,18182100.0,565,2711.078877,0.0,,,,
469,3076.196266,1735.5525940000002,835569024.0,565,2711.078877,365.117389,1.0,1.0,0.0,0.0
473,3076.200374,1736.335329,802672000.0,565,2711.078877,365.1214970000001,1.0,1.0,0.0,0.0
570,2914.14427,1772.299108,849694016.0,565,2711.078877,203.06539299999986,1.0,0.0,0.0,0.0
515,3279.268019,1754.9190620000002,147032992.0,565,2711.078877,568.1891420000002,2.0,1.0,0.0,0.0
507,2873.107051,1750.5384780000002,33444600.0,565,2711.078877,162.02817400000004,0.0,1.0,0.0,0.0
408,3222.257752,1713.222981,58546600.0,565,2711.078877,511.17887500000006,1.0,1.0,1.0,0.0
535,3279.281416,1760.180818,535580992.0,565,2711.078877,568.2025389999999,2.0,1.0,0.0,0.0
597,3117.228458,1781.434551,4440560.0,565,2711.078877,406.1495810000001,2.0,0.0,0.0,0.0
486,3425.3204,1740.997362,392153984.0,565,2711.078877,714.2415230000001,2.0,1.0,1.0,0.0
591,3644.412601,1779.362832,31041500.0,565,2711.078877,933.3337240000001,3.0,2.0,0.0,0.0
539,3263.271334,1762.1331089999999,310427008.0,565,2711.078877,552.1924570000001,2.0,0.0,1.0,0.0
612,3482.3604990000003,1785.7085710000001,32466500.0,565,2711.078877,771.2816220000004,3.0,1.0,0.0,0.0
1410,2937.165914,2071.104179,29742900.0,1410,2937.165914,0.0,,,,
1324,3302.297919,2051.983137,117412000.0,1410,2937.165914,365.13200499999994,1.0,1.0,0.0,0.0
1326,3302.310402,2052.734196,70160096.0,1410,2937.165914,365.1444879999999,1.0,1.0,0.0,0.0
1421,3140.2471140000002,2074.059872,92523200.0,1410,2937.165914,203.08120000000008,1.0,0.0,0.0,0.0
1314,3667.4368240000003,2049.659876,103410000.0,1410,2937.165914,730.2709100000002,2.0,2.0,0.0,0.0
1259,3464.341507,2036.252804,26051600.0,1410,2937.165914,527.1755929999999,1.0,2.0,0.0,0.0
1330,3505.376601,2054.128781,58485000.0,1410,2937.165914,568.2106869999998,2.0,1.0,0.0,0.0
1479,3343.308453,2087.991282,291577984.0,1410,2937.165914,406.14253899999994,2.0,0.0,0.0,0.0
1404,3343.3244579999996,2069.713631,96860704.0,1410,2937.165914,406.15854399999944,2.0,0.0,0.0,0.0
1249,3610.402606,2033.46132,20722300.0,1410,2937.165914,673.236692,1.0,2.0,1.0,0.0
1244,3610.417125,2032.736481,13506400.0,1410,2937.165914,673.2512109999998,1.0,2.0,1.0,0.0
1251,3651.444525,2034.3423559999999,59150500.0,1410,2937.165914,714.2786109999997,2.0,1.0,1.0,0.0
1261,3651.442125,2036.627107,41220800.0,1410,2937.165914,714.2762109999999,2.0,1.0,1.0,0.0
1190,2905.200927,2005.527668,663425984.0,1190,2905.200927,0.0,,,,
1150,3270.339211,1987.2504629999999,655388032.0,1190,2905.200927,365.1382840000001,1.0,1.0,0.0,0.0
1166,3067.259565,1993.316975,188418000.0,1190,2905.200927,162.05863799999997,0.0,1.0,0.0,0.0
1077,3635.468026,1963.352529,770942976.0,1190,2905.200927,730.2670990000001,2.0,2.0,0.0,0.0
1175,3108.279956,1998.1362010000003,594750016.0,1190,2905.200927,203.079029,1.0,0.0,0.0,0.0
1156,3432.3837670000003,1989.620071,172288992.0,1190,2905.200927,527.1828400000004,1.0,2.0,0.0,0.0
1097,3473.415317,1969.457496,1115609984.0,1190,2905.200927,568.2143900000001,2.0,1.0,0.0,0.0
1043,3838.5414060000003,1947.9711320000001,662136000.0,1190,2905.200927,933.3404790000004,3.0,2.0,0.0,0.0
1132,3311.3629969999997,1980.3802010000002,1770390016.0,1190,2905.200927,406.16206999999986,2.0,0.0,0.0,0.0
1115,3311.3592559999997,1977.2587260000003,2308549888.0,1190,2905.200927,406.15832899999987,2.0,0.0,0.0,0.0
1069,3676.490929,1959.7916289999998,128603000.0,1190,2905.200927,771.2900020000002,3.0,1.0,0.0,0.0
1160,3514.4425189999997,1990.531255,116686000.0,1190,2905.200927,609.2415919999999,3.0,0.0,0.0,0.0
660,2488.039931,1804.641732,123130000.0,660,2488.039931,0.0,,,,
576,2853.1802789999997,1773.9235019999999,7197320192.0,660,2488.039931,365.1403479999999,1.0,1.0,0.0,0.0
611,2691.1215620000003,1785.618266,1608819968.0,660,2488.039931,203.08163100000047,1.0,0.0,0.0,0.0
624,2650.095041,1789.6800030000002,815105024.0,660,2488.039931,162.05511000000024,0.0,1.0,0.0,0.0
625,2650.096492,1790.13122,240948000.0,660,2488.039931,162.05656100000033,0.0,1.0,0.0,0.0
494,2999.230094,1744.404472,230839008.0,660,2488.039931,511.1901630000002,1.0,1.0,1.0,0.0
510,2999.2339920000004,1751.9003579999999,998334016.0,660,2488.039931,511.1940610000006,1.0,1.0,1.0,0.0
641,2691.1233420000003,1795.213773,1216150016.0,660,2488.039931,203.08341100000052,1.0,0.0,0.0,0.0
607,2894.199459,1784.5470289999998,380302016.0,660,2488.039931,406.15952800000014,2.0,0.0,0.0,0.0
622,2894.200706,1789.24949,65291300.0,660,2488.039931,406.1607750000003,2.0,0.0,0.0,0.0
598,2812.14808,1782.3164390000002,115399000.0,660,2488.039931,324.10814900000014,0.0,2.0,0.0,0.0
1786,4324.608462,2187.4845149999996,72784400.0,1786,4324.608462,0.0,,,,
1701,4689.744917,2164.759192,530582016.0,1786,4324.608462,365.13645499999984,1.0,1.0,0.0,0.0
1841,4527.687733,2198.797818,55183600.0,1786,4324.608462,203.0792709999996,1.0,0.0,0.0,0.0
1632,4835.807257,2149.676845,187656992.0,1786,4324.608462,511.19879500000025,1.0,1.0,1.0,0.0
1766,4527.697372,2184.201681,216794000.0,1786,4324.608462,203.0889099999995,1.0,0.0,0.0,0.0
1729,4730.773695,2171.507066,283695008.0,1786,4324.608462,406.1652329999997,2.0,0.0,0.0,0.0
1797,4365.642543,2191.9199550000003,173254000.0,1786,4324.608462,41.03408099999979,1.0,-1.0,0.0,0.0
1654,4673.763669,2155.780379,28590000.0,1786,4324.608462,349.1552069999998,1.0,0.0,1.0,0.0
1656,4673.748726,2155.848225,10389100.0,1786,4324.608462,349.14026399999966,1.0,0.0,1.0,0.0
1643,5038.884981,2153.206725,57364700.0,1786,4324.608462,714.276519,2.0,1.0,1.0,0.0
